﻿ValueId,Level,IntegerFlag,BaseParam,EachLevel
1,1,0,500,0
1,2,0,525,0
1,3,0,550,0
1,4,0,575,0
1,5,0,600,0
1,6,0,625,0
1,7,0,650,0
1,8,0,675,0
1,9,0,700,0
1,10,0,725,0
2,1,0,600,0
2,2,0,630,0
2,3,0,660,0
2,4,0,690,0
2,5,0,720,0
2,6,0,750,0
2,7,0,780,0
2,8,0,810,0
2,9,0,840,0
2,10,0,870,0
3,1,0,700,0
3,2,0,735,0
3,3,0,770,0
3,4,0,805,0
3,5,0,840,0
3,6,0,875,0
3,7,0,910,0
3,8,0,945,0
3,9,0,980,0
3,10,0,1015,0
4,1,0,800,0
4,2,0,840,0
4,3,0,880,0
4,4,0,920,0
4,5,0,960,0
4,6,0,1000,0
4,7,0,1040,0
4,8,0,1080,0
4,9,0,1120,0
4,10,0,1160,0
5,1,0,900,0
5,2,0,945,0
5,3,0,990,0
5,4,0,1035,0
5,5,0,1080,0
5,6,0,1125,0
5,7,0,1170,0
5,8,0,1215,0
5,9,0,1260,0
5,10,0,1305,0
6,1,0,1000,0
6,2,0,1050,0
6,3,0,1100,0
6,4,0,1150,0
6,5,0,1200,0
6,6,0,1250,0
6,7,0,1300,0
6,8,0,1350,0
6,9,0,1400,0
6,10,0,1450,0
7,1,0,1100,0
7,2,0,1155,0
7,3,0,1210,0
7,4,0,1265,0
7,5,0,1320,0
7,6,0,1375,0
7,7,0,1430,0
7,8,0,1485,0
7,9,0,1540,0
7,10,0,1595,0
8,1,0,1200,0
8,2,0,1260,0
8,3,0,1320,0
8,4,0,1380,0
8,5,0,1440,0
8,6,0,1500,0
8,7,0,1560,0
8,8,0,1620,0
8,9,0,1680,0
8,10,0,1740,0
9,1,0,1300,0
9,2,0,1365,0
9,3,0,1430,0
9,4,0,1495,0
9,5,0,1560,0
9,6,0,1625,0
9,7,0,1690,0
9,8,0,1755,0
9,9,0,1820,0
9,10,0,1885,0
10,1,0,1400,0
10,2,0,1470,0
10,3,0,1540,0
10,4,0,1610,0
10,5,0,1680,0
10,6,0,1750,0
10,7,0,1820,0
10,8,0,1890,0
10,9,0,1960,0
10,10,0,2030,0
11,1,0,300,0
11,2,0,315,0
11,3,0,330,0
11,4,0,345,0
11,5,0,360,0
11,6,0,375,0
11,7,0,390,0
11,8,0,405,0
11,9,0,420,0
11,10,0,435,0
12,1,0,400,0
12,2,0,420,0
12,3,0,440,0
12,4,0,460,0
12,5,0,480,0
12,6,0,500,0
12,7,0,520,0
12,8,0,540,0
12,9,0,560,0
12,10,0,580,0
13,1,0,500,0
13,2,0,525,0
13,3,0,550,0
13,4,0,575,0
13,5,0,600,0
13,6,0,625,0
13,7,0,650,0
13,8,0,675,0
13,9,0,700,0
13,10,0,725,0
14,1,0,600,0
14,2,0,630,0
14,3,0,660,0
14,4,0,690,0
14,5,0,720,0
14,6,0,750,0
14,7,0,780,0
14,8,0,810,0
14,9,0,840,0
14,10,0,870,0
15,1,0,700,0
15,2,0,735,0
15,3,0,770,0
15,4,0,805,0
15,5,0,840,0
15,6,0,875,0
15,7,0,910,0
15,8,0,945,0
15,9,0,980,0
15,10,0,1015,0
16,1,0,800,0
16,2,0,840,0
16,3,0,880,0
16,4,0,920,0
16,5,0,960,0
16,6,0,1000,0
16,7,0,1040,0
16,8,0,1080,0
16,9,0,1120,0
16,10,0,1160,0
17,1,0,900,0
17,2,0,945,0
17,3,0,990,0
17,4,0,1035,0
17,5,0,1080,0
17,6,0,1125,0
17,7,0,1170,0
17,8,0,1215,0
17,9,0,1260,0
17,10,0,1305,0
18,1,0,1000,0
18,2,0,1050,0
18,3,0,1100,0
18,4,0,1150,0
18,5,0,1200,0
18,6,0,1250,0
18,7,0,1300,0
18,8,0,1350,0
18,9,0,1400,0
18,10,0,1450,0
19,1,0,1100,0
19,2,0,1155,0
19,3,0,1210,0
19,4,0,1265,0
19,5,0,1320,0
19,6,0,1375,0
19,7,0,1430,0
19,8,0,1485,0
19,9,0,1540,0
19,10,0,1595,0
20,1,0,1200,0
20,2,0,1260,0
20,3,0,1320,0
20,4,0,1380,0
20,5,0,1440,0
20,6,0,1500,0
20,7,0,1560,0
20,8,0,1620,0
20,9,0,1680,0
20,10,0,1740,0
21,1,0,300,0
21,2,0,315,0
21,3,0,330,0
21,4,0,345,0
21,5,0,360,0
21,6,0,375,0
21,7,0,390,0
21,8,0,405,0
21,9,0,420,0
21,10,0,435,0
22,1,0,400,0
22,2,0,420,0
22,3,0,440,0
22,4,0,460,0
22,5,0,480,0
22,6,0,500,0
22,7,0,520,0
22,8,0,540,0
22,9,0,560,0
22,10,0,580,0
23,1,0,400,0
23,2,0,420,0
23,3,0,440,0
23,4,0,460,0
23,5,0,480,0
23,6,0,500,0
23,7,0,520,0
23,8,0,540,0
23,9,0,560,0
23,10,0,580,0
24,1,0,500,0
24,2,0,525,0
24,3,0,550,0
24,4,0,575,0
24,5,0,600,0
24,6,0,625,0
24,7,0,650,0
24,8,0,675,0
24,9,0,700,0
24,10,0,725,0
25,1,0,600,0
25,2,0,630,0
25,3,0,660,0
25,4,0,690,0
25,5,0,720,0
25,6,0,750,0
25,7,0,780,0
25,8,0,810,0
25,9,0,840,0
25,10,0,870,0
26,1,0,600,0
26,2,0,630,0
26,3,0,660,0
26,4,0,690,0
26,5,0,720,0
26,6,0,750,0
26,7,0,780,0
26,8,0,810,0
26,9,0,840,0
26,10,0,870,0
27,1,0,700,0
27,2,0,735,0
27,3,0,770,0
27,4,0,805,0
27,5,0,840,0
27,6,0,875,0
27,7,0,910,0
27,8,0,945,0
27,9,0,980,0
27,10,0,1015,0
28,1,0,800,0
28,2,0,840,0
28,3,0,880,0
28,4,0,920,0
28,5,0,960,0
28,6,0,1000,0
28,7,0,1040,0
28,8,0,1080,0
28,9,0,1120,0
28,10,0,1160,0
29,1,0,900,0
29,2,0,945,0
29,3,0,990,0
29,4,0,1035,0
29,5,0,1080,0
29,6,0,1125,0
29,7,0,1170,0
29,8,0,1215,0
29,9,0,1260,0
29,10,0,1305,0
30,1,0,900,0
30,2,0,945,0
30,3,0,990,0
30,4,0,1035,0
30,5,0,1080,0
30,6,0,1125,0
30,7,0,1170,0
30,8,0,1215,0
30,9,0,1260,0
30,10,0,1305,0
31,1,0,100,0
31,2,0,105,0
31,3,0,110,0
31,4,0,115,0
31,5,0,120,0
31,6,0,125,0
31,7,0,130,0
31,8,0,135,0
31,9,0,140,0
31,10,0,145,0
32,1,0,200,0
32,2,0,210,0
32,3,0,220,0
32,4,0,230,0
32,5,0,240,0
32,6,0,250,0
32,7,0,260,0
32,8,0,270,0
32,9,0,280,0
32,10,0,290,0
33,1,0,300,0
33,2,0,315,0
33,3,0,330,0
33,4,0,345,0
33,5,0,360,0
33,6,0,375,0
33,7,0,390,0
33,8,0,405,0
33,9,0,420,0
33,10,0,435,0
34,1,0,400,0
34,2,0,420,0
34,3,0,440,0
34,4,0,460,0
34,5,0,480,0
34,6,0,500,0
34,7,0,520,0
34,8,0,540,0
34,9,0,560,0
34,10,0,580,0
35,1,0,400,0
35,2,0,420,0
35,3,0,440,0
35,4,0,460,0
35,5,0,480,0
35,6,0,500,0
35,7,0,520,0
35,8,0,540,0
35,9,0,560,0
35,10,0,580,0
36,1,0,500,0
36,2,0,525,0
36,3,0,550,0
36,4,0,575,0
36,5,0,600,0
36,6,0,625,0
36,7,0,650,0
36,8,0,675,0
36,9,0,700,0
36,10,0,725,0
37,1,0,600,0
37,2,0,630,0
37,3,0,660,0
37,4,0,690,0
37,5,0,720,0
37,6,0,750,0
37,7,0,780,0
37,8,0,810,0
37,9,0,840,0
37,10,0,870,0
38,1,0,600,0
38,2,0,630,0
38,3,0,660,0
38,4,0,690,0
38,5,0,720,0
38,6,0,750,0
38,7,0,780,0
38,8,0,810,0
38,9,0,840,0
38,10,0,870,0
39,1,0,700,0
39,2,0,735,0
39,3,0,770,0
39,4,0,805,0
39,5,0,840,0
39,6,0,875,0
39,7,0,910,0
39,8,0,945,0
39,9,0,980,0
39,10,0,1015,0
40,1,0,800,0
40,2,0,840,0
40,3,0,880,0
40,4,0,920,0
40,5,0,960,0
40,6,0,1000,0
40,7,0,1040,0
40,8,0,1080,0
40,9,0,1120,0
40,10,0,1160,0
41,1,0,200,0
41,2,0,210,0
41,3,0,220,0
41,4,0,230,0
41,5,0,240,0
41,6,0,250,0
41,7,0,260,0
41,8,0,270,0
41,9,0,280,0
41,10,0,290,0
42,1,0,300,0
42,2,0,315,0
42,3,0,330,0
42,4,0,345,0
42,5,0,360,0
42,6,0,375,0
42,7,0,390,0
42,8,0,405,0
42,9,0,420,0
42,10,0,435,0
43,1,0,400,0
43,2,0,420,0
43,3,0,440,0
43,4,0,460,0
43,5,0,480,0
43,6,0,500,0
43,7,0,520,0
43,8,0,540,0
43,9,0,560,0
43,10,0,580,0
44,1,0,500,0
44,2,0,525,0
44,3,0,550,0
44,4,0,575,0
44,5,0,600,0
44,6,0,625,0
44,7,0,650,0
44,8,0,675,0
44,9,0,700,0
44,10,0,725,0
45,1,0,600,0
45,2,0,630,0
45,3,0,660,0
45,4,0,690,0
45,5,0,720,0
45,6,0,750,0
45,7,0,780,0
45,8,0,810,0
45,9,0,840,0
45,10,0,870,0
46,1,0,700,0
46,2,0,735,0
46,3,0,770,0
46,4,0,805,0
46,5,0,840,0
46,6,0,875,0
46,7,0,910,0
46,8,0,945,0
46,9,0,980,0
46,10,0,1015,0
47,1,0,800,0
47,2,0,840,0
47,3,0,880,0
47,4,0,920,0
47,5,0,960,0
47,6,0,1000,0
47,7,0,1040,0
47,8,0,1080,0
47,9,0,1120,0
47,10,0,1160,0
48,1,0,900,0
48,2,0,945,0
48,3,0,990,0
48,4,0,1035,0
48,5,0,1080,0
48,6,0,1125,0
48,7,0,1170,0
48,8,0,1215,0
48,9,0,1260,0
48,10,0,1305,0
49,1,0,900,0
49,2,0,945,0
49,3,0,990,0
49,4,0,1035,0
49,5,0,1080,0
49,6,0,1125,0
49,7,0,1170,0
49,8,0,1215,0
49,9,0,1260,0
49,10,0,1305,0
50,1,0,1000,0
50,2,0,1050,0
50,3,0,1100,0
50,4,0,1150,0
50,5,0,1200,0
50,6,0,1250,0
50,7,0,1300,0
50,8,0,1350,0
50,9,0,1400,0
50,10,0,1450,0
51,1,0,100,0
51,2,0,105,0
51,3,0,110,0
51,4,0,115,0
51,5,0,120,0
51,6,0,125,0
51,7,0,130,0
51,8,0,135,0
51,9,0,140,0
51,10,0,145,0
52,1,0,200,0
52,2,0,210,0
52,3,0,220,0
52,4,0,230,0
52,5,0,240,0
52,6,0,250,0
52,7,0,260,0
52,8,0,270,0
52,9,0,280,0
52,10,0,290,0
53,1,0,300,0
53,2,0,315,0
53,3,0,330,0
53,4,0,345,0
53,5,0,360,0
53,6,0,375,0
53,7,0,390,0
53,8,0,405,0
53,9,0,420,0
53,10,0,435,0
54,1,0,400,0
54,2,0,420,0
54,3,0,440,0
54,4,0,460,0
54,5,0,480,0
54,6,0,500,0
54,7,0,520,0
54,8,0,540,0
54,9,0,560,0
54,10,0,580,0
55,1,0,500,0
55,2,0,525,0
55,3,0,550,0
55,4,0,575,0
55,5,0,600,0
55,6,0,625,0
55,7,0,650,0
55,8,0,675,0
55,9,0,700,0
55,10,0,725,0
56,1,0,600,0
56,2,0,630,0
56,3,0,660,0
56,4,0,690,0
56,5,0,720,0
56,6,0,750,0
56,7,0,780,0
56,8,0,810,0
56,9,0,840,0
56,10,0,870,0
57,1,0,700,0
57,2,0,735,0
57,3,0,770,0
57,4,0,805,0
57,5,0,840,0
57,6,0,875,0
57,7,0,910,0
57,8,0,945,0
57,9,0,980,0
57,10,0,1015,0
58,1,0,800,0
58,2,0,840,0
58,3,0,880,0
58,4,0,920,0
58,5,0,960,0
58,6,0,1000,0
58,7,0,1040,0
58,8,0,1080,0
58,9,0,1120,0
58,10,0,1160,0
59,1,0,900,0
59,2,0,945,0
59,3,0,990,0
59,4,0,1035,0
59,5,0,1080,0
59,6,0,1125,0
59,7,0,1170,0
59,8,0,1215,0
59,9,0,1260,0
59,10,0,1305,0
60,1,0,1000,0
60,2,0,1050,0
60,3,0,1100,0
60,4,0,1150,0
60,5,0,1200,0
60,6,0,1250,0
60,7,0,1300,0
60,8,0,1350,0
60,9,0,1400,0
60,10,0,1450,0
61,1,0,100,0
61,2,0,105,0
61,3,0,110,0
61,4,0,115,0
61,5,0,120,0
61,6,0,125,0
61,7,0,130,0
61,8,0,135,0
61,9,0,140,0
61,10,0,145,0
62,1,0,200,0
62,2,0,210,0
62,3,0,220,0
62,4,0,230,0
62,5,0,240,0
62,6,0,250,0
62,7,0,260,0
62,8,0,270,0
62,9,0,280,0
62,10,0,290,0
63,1,0,300,0
63,2,0,315,0
63,3,0,330,0
63,4,0,345,0
63,5,0,360,0
63,6,0,375,0
63,7,0,390,0
63,8,0,405,0
63,9,0,420,0
63,10,0,435,0
64,1,0,400,0
64,2,0,420,0
64,3,0,440,0
64,4,0,460,0
64,5,0,480,0
64,6,0,500,0
64,7,0,520,0
64,8,0,540,0
64,9,0,560,0
64,10,0,580,0
65,1,0,500,0
65,2,0,525,0
65,3,0,550,0
65,4,0,575,0
65,5,0,600,0
65,6,0,625,0
65,7,0,650,0
65,8,0,675,0
65,9,0,700,0
65,10,0,725,0
66,1,0,600,0
66,2,0,630,0
66,3,0,660,0
66,4,0,690,0
66,5,0,720,0
66,6,0,750,0
66,7,0,780,0
66,8,0,810,0
66,9,0,840,0
66,10,0,870,0
67,1,0,700,0
67,2,0,735,0
67,3,0,770,0
67,4,0,805,0
67,5,0,840,0
67,6,0,875,0
67,7,0,910,0
67,8,0,945,0
67,9,0,980,0
67,10,0,1015,0
68,1,0,800,0
68,2,0,840,0
68,3,0,880,0
68,4,0,920,0
68,5,0,960,0
68,6,0,1000,0
68,7,0,1040,0
68,8,0,1080,0
68,9,0,1120,0
68,10,0,1160,0
69,1,0,900,0
69,2,0,945,0
69,3,0,990,0
69,4,0,1035,0
69,5,0,1080,0
69,6,0,1125,0
69,7,0,1170,0
69,8,0,1215,0
69,9,0,1260,0
69,10,0,1305,0
70,1,0,1000,0
70,2,0,1050,0
70,3,0,1100,0
70,4,0,1150,0
70,5,0,1200,0
70,6,0,1250,0
70,7,0,1300,0
70,8,0,1350,0
70,9,0,1400,0
70,10,0,1450,0
71,1,0,100,0
71,2,0,105,0
71,3,0,110,0
71,4,0,115,0
71,5,0,120,0
71,6,0,125,0
71,7,0,130,0
71,8,0,135,0
71,9,0,140,0
71,10,0,145,0
72,1,0,200,0
72,2,0,210,0
72,3,0,220,0
72,4,0,230,0
72,5,0,240,0
72,6,0,250,0
72,7,0,260,0
72,8,0,270,0
72,9,0,280,0
72,10,0,290,0
73,1,0,300,0
73,2,0,315,0
73,3,0,330,0
73,4,0,345,0
73,5,0,360,0
73,6,0,375,0
73,7,0,390,0
73,8,0,405,0
73,9,0,420,0
73,10,0,435,0
74,1,0,400,0
74,2,0,420,0
74,3,0,440,0
74,4,0,460,0
74,5,0,480,0
74,6,0,500,0
74,7,0,520,0
74,8,0,540,0
74,9,0,560,0
74,10,0,580,0
75,1,0,500,0
75,2,0,525,0
75,3,0,550,0
75,4,0,575,0
75,5,0,600,0
75,6,0,625,0
75,7,0,650,0
75,8,0,675,0
75,9,0,700,0
75,10,0,725,0
76,1,0,600,0
76,2,0,630,0
76,3,0,660,0
76,4,0,690,0
76,5,0,720,0
76,6,0,750,0
76,7,0,780,0
76,8,0,810,0
76,9,0,840,0
76,10,0,870,0
77,1,0,700,0
77,2,0,735,0
77,3,0,770,0
77,4,0,805,0
77,5,0,840,0
77,6,0,875,0
77,7,0,910,0
77,8,0,945,0
77,9,0,980,0
77,10,0,1015,0
78,1,0,800,0
78,2,0,840,0
78,3,0,880,0
78,4,0,920,0
78,5,0,960,0
78,6,0,1000,0
78,7,0,1040,0
78,8,0,1080,0
78,9,0,1120,0
78,10,0,1160,0
79,1,0,900,0
79,2,0,945,0
79,3,0,990,0
79,4,0,1035,0
79,5,0,1080,0
79,6,0,1125,0
79,7,0,1170,0
79,8,0,1215,0
79,9,0,1260,0
79,10,0,1305,0
80,1,0,1000,0
80,2,0,1050,0
80,3,0,1100,0
80,4,0,1150,0
80,5,0,1200,0
80,6,0,1250,0
80,7,0,1300,0
80,8,0,1350,0
80,9,0,1400,0
80,10,0,1450,0
81,1,0,100,0
81,2,0,105,0
81,3,0,110,0
81,4,0,115,0
81,5,0,120,0
81,6,0,125,0
81,7,0,130,0
81,8,0,135,0
81,9,0,140,0
81,10,0,145,0
82,1,0,200,0
82,2,0,210,0
82,3,0,220,0
82,4,0,230,0
82,5,0,240,0
82,6,0,250,0
82,7,0,260,0
82,8,0,270,0
82,9,0,280,0
82,10,0,290,0
83,1,0,300,0
83,2,0,315,0
83,3,0,330,0
83,4,0,345,0
83,5,0,360,0
83,6,0,375,0
83,7,0,390,0
83,8,0,405,0
83,9,0,420,0
83,10,0,435,0
84,1,0,400,0
84,2,0,420,0
84,3,0,440,0
84,4,0,460,0
84,5,0,480,0
84,6,0,500,0
84,7,0,520,0
84,8,0,540,0
84,9,0,560,0
84,10,0,580,0
85,1,0,500,0
85,2,0,525,0
85,3,0,550,0
85,4,0,575,0
85,5,0,600,0
85,6,0,625,0
85,7,0,650,0
85,8,0,675,0
85,9,0,700,0
85,10,0,725,0
86,1,0,600,0
86,2,0,630,0
86,3,0,660,0
86,4,0,690,0
86,5,0,720,0
86,6,0,750,0
86,7,0,780,0
86,8,0,810,0
86,9,0,840,0
86,10,0,870,0
87,1,0,700,0
87,2,0,735,0
87,3,0,770,0
87,4,0,805,0
87,5,0,840,0
87,6,0,875,0
87,7,0,910,0
87,8,0,945,0
87,9,0,980,0
87,10,0,1015,0
88,1,0,800,0
88,2,0,840,0
88,3,0,880,0
88,4,0,920,0
88,5,0,960,0
88,6,0,1000,0
88,7,0,1040,0
88,8,0,1080,0
88,9,0,1120,0
88,10,0,1160,0
89,1,0,900,0
89,2,0,945,0
89,3,0,990,0
89,4,0,1035,0
89,5,0,1080,0
89,6,0,1125,0
89,7,0,1170,0
89,8,0,1215,0
89,9,0,1260,0
89,10,0,1305,0
90,1,0,1000,0
90,2,0,1050,0
90,3,0,1100,0
90,4,0,1150,0
90,5,0,1200,0
90,6,0,1250,0
90,7,0,1300,0
90,8,0,1350,0
90,9,0,1400,0
90,10,0,1450,0
91,1,0,0,0
91,2,0,0,0
91,3,0,0,0
91,4,0,0,0
91,5,0,0,0
91,6,0,0,0
91,7,0,0,0
91,8,0,0,0
91,9,0,0,0
91,10,0,0,0
92,1,0,0,0
92,2,0,0,0
92,3,0,0,0
92,4,0,0,0
92,5,0,0,0
92,6,0,0,0
92,7,0,0,0
92,8,0,0,0
92,9,0,0,0
92,10,0,0,0
93,1,0,100,0
93,2,0,105,0
93,3,0,110,0
93,4,0,115,0
93,5,0,120,0
93,6,0,125,0
93,7,0,130,0
93,8,0,135,0
93,9,0,140,0
93,10,0,145,0
94,1,0,200,0
94,2,0,210,0
94,3,0,220,0
94,4,0,230,0
94,5,0,240,0
94,6,0,250,0
94,7,0,260,0
94,8,0,270,0
94,9,0,280,0
94,10,0,290,0
95,1,0,300,0
95,2,0,315,0
95,3,0,330,0
95,4,0,345,0
95,5,0,360,0
95,6,0,375,0
95,7,0,390,0
95,8,0,405,0
95,9,0,420,0
95,10,0,435,0
96,1,0,400,0
96,2,0,420,0
96,3,0,440,0
96,4,0,460,0
96,5,0,480,0
96,6,0,500,0
96,7,0,520,0
96,8,0,540,0
96,9,0,560,0
96,10,0,580,0
97,1,0,500,0
97,2,0,525,0
97,3,0,550,0
97,4,0,575,0
97,5,0,600,0
97,6,0,625,0
97,7,0,650,0
97,8,0,675,0
97,9,0,700,0
97,10,0,725,0
98,1,0,600,0
98,2,0,630,0
98,3,0,660,0
98,4,0,690,0
98,5,0,720,0
98,6,0,750,0
98,7,0,780,0
98,8,0,810,0
98,9,0,840,0
98,10,0,870,0
99,1,0,700,0
99,2,0,735,0
99,3,0,770,0
99,4,0,805,0
99,5,0,840,0
99,6,0,875,0
99,7,0,910,0
99,8,0,945,0
99,9,0,980,0
99,10,0,1015,0
100,1,0,800,0
100,2,0,840,0
100,3,0,880,0
100,4,0,920,0
100,5,0,960,0
100,6,0,1000,0
100,7,0,1040,0
100,8,0,1080,0
100,9,0,1120,0
100,10,0,1160,0
101,1,0,900,0
101,2,0,945,0
101,3,0,990,0
101,4,0,1035,0
101,5,0,1080,0
101,6,0,1125,0
101,7,0,1170,0
101,8,0,1215,0
101,9,0,1260,0
101,10,0,1305,0
102,1,0,1000,0
102,2,0,1050,0
102,3,0,1100,0
102,4,0,1150,0
102,5,0,1200,0
102,6,0,1250,0
102,7,0,1300,0
102,8,0,1350,0
102,9,0,1400,0
102,10,0,1450,0
103,1,0,100,0
103,2,0,105,0
103,3,0,110,0
103,4,0,115,0
103,5,0,120,0
103,6,0,125,0
103,7,0,130,0
103,8,0,135,0
103,9,0,140,0
103,10,0,145,0
104,1,0,200,0
104,2,0,210,0
104,3,0,220,0
104,4,0,230,0
104,5,0,240,0
104,6,0,250,0
104,7,0,260,0
104,8,0,270,0
104,9,0,280,0
104,10,0,290,0
105,1,0,300,0
105,2,0,315,0
105,3,0,330,0
105,4,0,345,0
105,5,0,360,0
105,6,0,375,0
105,7,0,390,0
105,8,0,405,0
105,9,0,420,0
105,10,0,435,0
106,1,0,400,0
106,2,0,420,0
106,3,0,440,0
106,4,0,460,0
106,5,0,480,0
106,6,0,500,0
106,7,0,520,0
106,8,0,540,0
106,9,0,560,0
106,10,0,580,0
107,1,0,500,0
107,2,0,525,0
107,3,0,550,0
107,4,0,575,0
107,5,0,600,0
107,6,0,625,0
107,7,0,650,0
107,8,0,675,0
107,9,0,700,0
107,10,0,725,0
108,1,0,600,0
108,2,0,630,0
108,3,0,660,0
108,4,0,690,0
108,5,0,720,0
108,6,0,750,0
108,7,0,780,0
108,8,0,810,0
108,9,0,840,0
108,10,0,870,0
109,1,0,700,0
109,2,0,735,0
109,3,0,770,0
109,4,0,805,0
109,5,0,840,0
109,6,0,875,0
109,7,0,910,0
109,8,0,945,0
109,9,0,980,0
109,10,0,1015,0
110,1,0,800,0
110,2,0,840,0
110,3,0,880,0
110,4,0,920,0
110,5,0,960,0
110,6,0,1000,0
110,7,0,1040,0
110,8,0,1080,0
110,9,0,1120,0
110,10,0,1160,0
111,1,0,900,0
111,2,0,945,0
111,3,0,990,0
111,4,0,1035,0
111,5,0,1080,0
111,6,0,1125,0
111,7,0,1170,0
111,8,0,1215,0
111,9,0,1260,0
111,10,0,1305,0
112,1,0,1000,0
112,2,0,1050,0
112,3,0,1100,0
112,4,0,1150,0
112,5,0,1200,0
112,6,0,1250,0
112,7,0,1300,0
112,8,0,1350,0
112,9,0,1400,0
112,10,0,1450,0
113,1,0,0,0
113,2,0,0,0
113,3,0,0,0
113,4,0,0,0
113,5,0,0,0
113,6,0,0,0
113,7,0,0,0
113,8,0,0,0
113,9,0,0,0
113,10,0,0,0
114,1,0,0,0
114,2,0,0,0
114,3,0,0,0
114,4,0,0,0
114,5,0,0,0
114,6,0,0,0
114,7,0,0,0
114,8,0,0,0
114,9,0,0,0
114,10,0,0,0
115,1,0,0,0
115,2,0,0,0
115,3,0,0,0
115,4,0,0,0
115,5,0,0,0
115,6,0,0,0
115,7,0,0,0
115,8,0,0,0
115,9,0,0,0
115,10,0,0,0
116,1,0,1000,0
116,2,0,1050,0
116,3,0,1100,0
116,4,0,1150,0
116,5,0,1200,0
116,6,0,1250,0
116,7,0,1300,0
116,8,0,1350,0
116,9,0,1400,0
116,10,0,1450,0
117,1,0,1100,0
117,2,0,1155,0
117,3,0,1210,0
117,4,0,1265,0
117,5,0,1320,0
117,6,0,1375,0
117,7,0,1430,0
117,8,0,1485,0
117,9,0,1540,0
117,10,0,1595,0
118,1,0,1200,0
118,2,0,1260,0
118,3,0,1320,0
118,4,0,1380,0
118,5,0,1440,0
118,6,0,1500,0
118,7,0,1560,0
118,8,0,1620,0
118,9,0,1680,0
118,10,0,1740,0
119,1,0,1300,0
119,2,0,1365,0
119,3,0,1430,0
119,4,0,1495,0
119,5,0,1560,0
119,6,0,1625,0
119,7,0,1690,0
119,8,0,1755,0
119,9,0,1820,0
119,10,0,1885,0
120,1,0,1400,0
120,2,0,1470,0
120,3,0,1540,0
120,4,0,1610,0
120,5,0,1680,0
120,6,0,1750,0
120,7,0,1820,0
120,8,0,1890,0
120,9,0,1960,0
120,10,0,2030,0
121,1,0,1500,0
121,2,0,1575,0
121,3,0,1650,0
121,4,0,1725,0
121,5,0,1800,0
121,6,0,1875,0
121,7,0,1950,0
121,8,0,2025,0
121,9,0,2100,0
121,10,0,2175,0
122,1,0,1600,0
122,2,0,1680,0
122,3,0,1760,0
122,4,0,1840,0
122,5,0,1920,0
122,6,0,2000,0
122,7,0,2080,0
122,8,0,2160,0
122,9,0,2240,0
122,10,0,2320,0
123,1,0,1700,0
123,2,0,1785,0
123,3,0,1870,0
123,4,0,1955,0
123,5,0,2040,0
123,6,0,2125,0
123,7,0,2210,0
123,8,0,2295,0
123,9,0,2380,0
123,10,0,2465,0
124,1,0,1800,0
124,2,0,1890,0
124,3,0,1980,0
124,4,0,2070,0
124,5,0,2160,0
124,6,0,2250,0
124,7,0,2340,0
124,8,0,2430,0
124,9,0,2520,0
124,10,0,2610,0
125,1,0,1900,0
125,2,0,1995,0
125,3,0,2090,0
125,4,0,2185,0
125,5,0,2280,0
125,6,0,2375,0
125,7,0,2470,0
125,8,0,2565,0
125,9,0,2660,0
125,10,0,2755,0
126,1,0,3000,0
126,2,0,3150,0
126,3,0,3300,0
126,4,0,3450,0
126,5,0,3600,0
126,6,0,3750,0
126,7,0,3900,0
126,8,0,4050,0
126,9,0,4200,0
126,10,0,4350,0
127,1,0,3500,0
127,2,0,3675,0
127,3,0,3850,0
127,4,0,4025,0
127,5,0,4200,0
127,6,0,4375,0
127,7,0,4550,0
127,8,0,4725,0
127,9,0,4900,0
127,10,0,5075,0
128,1,0,4000,0
128,2,0,4200,0
128,3,0,4400,0
128,4,0,4600,0
128,5,0,4800,0
128,6,0,5000,0
128,7,0,5200,0
128,8,0,5400,0
128,9,0,5600,0
128,10,0,5800,0
129,1,0,4500,0
129,2,0,4725,0
129,3,0,4950,0
129,4,0,5175,0
129,5,0,5400,0
129,6,0,5625,0
129,7,0,5850,0
129,8,0,6075,0
129,9,0,6300,0
129,10,0,6525,0
130,1,0,5000,0
130,2,0,5250,0
130,3,0,5500,0
130,4,0,5750,0
130,5,0,6000,0
130,6,0,6250,0
130,7,0,6500,0
130,8,0,6750,0
130,9,0,7000,0
130,10,0,7250,0
131,1,0,5500,0
131,2,0,5775,0
131,3,0,6050,0
131,4,0,6325,0
131,5,0,6600,0
131,6,0,6875,0
131,7,0,7150,0
131,8,0,7425,0
131,9,0,7700,0
131,10,0,7975,0
132,1,0,6000,0
132,2,0,6300,0
132,3,0,6600,0
132,4,0,6900,0
132,5,0,7200,0
132,6,0,7500,0
132,7,0,7800,0
132,8,0,8100,0
132,9,0,8400,0
132,10,0,8700,0
133,1,0,6500,0
133,2,0,6825,0
133,3,0,7150,0
133,4,0,7475,0
133,5,0,7800,0
133,6,0,8125,0
133,7,0,8450,0
133,8,0,8775,0
133,9,0,9100,0
133,10,0,9425,0
134,1,0,7000,0
134,2,0,7350,0
134,3,0,7700,0
134,4,0,8050,0
134,5,0,8400,0
134,6,0,8750,0
134,7,0,9100,0
134,8,0,9450,0
134,9,0,9800,0
134,10,0,10150,0
135,1,0,7500,0
135,2,0,7875,0
135,3,0,8250,0
135,4,0,8625,0
135,5,0,9000,0
135,6,0,9375,0
135,7,0,9750,0
135,8,0,10125,0
135,9,0,10500,0
135,10,0,10875,0
136,1,0,2000,0
136,2,0,2100,0
136,3,0,2200,0
136,4,0,2300,0
136,5,0,2400,0
136,6,0,2500,0
136,7,0,2600,0
136,8,0,2700,0
136,9,0,2800,0
136,10,0,2900,0
137,1,0,2500,0
137,2,0,2625,0
137,3,0,2750,0
137,4,0,2875,0
137,5,0,3000,0
137,6,0,3125,0
137,7,0,3250,0
137,8,0,3375,0
137,9,0,3500,0
137,10,0,3625,0
138,1,0,3000,0
138,2,0,3150,0
138,3,0,3300,0
138,4,0,3450,0
138,5,0,3600,0
138,6,0,3750,0
138,7,0,3900,0
138,8,0,4050,0
138,9,0,4200,0
138,10,0,4350,0
139,1,0,3500,0
139,2,0,3675,0
139,3,0,3850,0
139,4,0,4025,0
139,5,0,4200,0
139,6,0,4375,0
139,7,0,4550,0
139,8,0,4725,0
139,9,0,4900,0
139,10,0,5075,0
140,1,0,4000,0
140,2,0,4200,0
140,3,0,4400,0
140,4,0,4600,0
140,5,0,4800,0
140,6,0,5000,0
140,7,0,5200,0
140,8,0,5400,0
140,9,0,5600,0
140,10,0,5800,0
141,1,0,4500,0
141,2,0,4725,0
141,3,0,4950,0
141,4,0,5175,0
141,5,0,5400,0
141,6,0,5625,0
141,7,0,5850,0
141,8,0,6075,0
141,9,0,6300,0
141,10,0,6525,0
142,1,0,5000,0
142,2,0,5250,0
142,3,0,5500,0
142,4,0,5750,0
142,5,0,6000,0
142,6,0,6250,0
142,7,0,6500,0
142,8,0,6750,0
142,9,0,7000,0
142,10,0,7250,0
143,1,0,5500,0
143,2,0,5775,0
143,3,0,6050,0
143,4,0,6325,0
143,5,0,6600,0
143,6,0,6875,0
143,7,0,7150,0
143,8,0,7425,0
143,9,0,7700,0
143,10,0,7975,0
144,1,0,6000,0
144,2,0,6300,0
144,3,0,6600,0
144,4,0,6900,0
144,5,0,7200,0
144,6,0,7500,0
144,7,0,7800,0
144,8,0,8100,0
144,9,0,8400,0
144,10,0,8700,0
145,1,0,6500,0
145,2,0,6825,0
145,3,0,7150,0
145,4,0,7475,0
145,5,0,7800,0
145,6,0,8125,0
145,7,0,8450,0
145,8,0,8775,0
145,9,0,9100,0
145,10,0,9425,0
146,1,0,0,0
146,2,0,0,0
146,3,0,0,0
146,4,0,0,0
146,5,0,0,0
146,6,0,0,0
146,7,0,0,0
146,8,0,0,0
146,9,0,0,0
146,10,0,0,0
147,1,0,0,0
147,2,0,0,0
147,3,0,0,0
147,4,0,0,0
147,5,0,0,0
147,6,0,0,0
147,7,0,0,0
147,8,0,0,0
147,9,0,0,0
147,10,0,0,0
148,1,0,0,0
148,2,0,0,0
148,3,0,0,0
148,4,0,0,0
148,5,0,0,0
148,6,0,0,0
148,7,0,0,0
148,8,0,0,0
148,9,0,0,0
148,10,0,0,0
