﻿GroupMachinaId,Name,Caption,Needs,Elements,Roles,ExpTableId
1,火のマキナ,火属性の攻撃力が上がるマキナ,50,1,127,1
2,水守護のマキナ,水属性ディフェンダーの防御力が上がるマキナ,50,2,2,1
3,風、地のマキナ,風、地属性のタフさが上がるマキナ,50,12,127,1
4,豪運のマキナ,ラッキー、クリティカルの運と会心が上がるマキナ,50,15,48,1
5,強化マキナ,全パラメータが少し上がるマキナ,50,15,127,1
9001,レイヤ経典写本,火属性キャラの全パラメータアップ,130,1,127,1
9002,A.R.初号機-α型,水属性キャラの全パラメータアップ,130,2,127,1
9003,賢者の霊廟図,風属性キャラの全パラメータアップ,130,4,127,1
9004,魔女の賽子,土属性キャラの全パラメータアップ,130,8,127,1
9005,ダークマナの結晶,全属性キャラの全パラメータアップ,120,15,127,1
9006,魔徒の片翼,全タイプの全パラメータアップ,180,15,127,1
9007,魔王の機械像,パーティの攻撃力アップ,100,15,127,1
9008,亡き母のペンダント,パーティの防御力アップ,40,15,127,1
9009,女神の偶像,パーティの回復力アップ,180,15,127,1
9010,前史の超越回路,パーティのHPアップ,130,15,127,1
9011,狂信者のロザリオ,パーティの運アップ,90,15,127,1
9012,秘密結社の暗号機,パーティの会心アップ,110,15,127,1
9013,八賢者の聖痕,プレイヤー経験値量アップ,70,15,127,1
9014,終末戦争の手記,キャラ熟練度アップ,130,15,127,1
9015,亡き巫女の姿見,ベルズ獲得量アップ,130,15,127,1
9016,機械仕掛けの心臓,ハーツ獲得量アップ,130,15,127,1
