﻿SkillId,ActionId,ChangeId,AttId,SwitchId,Span,Color,RandomOwnerId
80300401,1,1,2,1,1,Red,0
80300401,1,1,2,2,0,Blue,0
80300401,1,1,2,3,0,Green,0
80300401,1,1,2,4,0,Yerrow,0
80300401,1,1,2,5,0,Heal,0
80300407,1,1,2,1,1,Red,0
80300407,1,1,2,2,0,Blue,0
80300407,1,1,2,3,0,Green,0
80300407,1,1,2,4,0,Yerrow,0
80300407,1,1,2,5,0,Heal,0
80300415,1,1,2,1,1,Red,0
80300415,1,1,2,2,0,Blue,0
80300415,1,1,2,3,0,Green,0
80300415,1,1,2,4,0,Yerrow,0
80300415,1,1,2,5,0,Heal,0
