﻿SkillId,ActionId,ShotId,EfficacyId,Kind,Param,Combine
10120101,1,1,1,Attack,100,None
10120102,1,1,1,Attack,60,None
13120101,1,1,1,Attack,100,None
13120102,1,1,1,Attack,60,None
13120103,1,1,1,Attack,100,None
12120101,1,1,1,Attack,100,None
12120102,1,1,1,Attack,60,None
12120103,1,1,1,Attack,50,None
10110101,1,1,1,Attack,100,None
10110102,1,1,1,Attack,60,None
13110101,1,1,1,Attack,100,None
13110102,1,1,1,Attack,60,None
13110103,1,1,1,Attack,100,None
12110101,1,1,1,Attack,100,None
12110102,1,1,1,Attack,60,None
12110103,1,1,1,Attack,50,None
10130101,1,1,1,Attack,100,None
10130102,1,1,1,Attack,60,None
10130103,1,1,1,Attack,100,None
13130101,1,1,1,Attack,100,None
13130102,1,1,1,Attack,60,None
13130103,1,1,1,Attack,100,None
13130104,1,1,1,Attack,100,None
13130104,2,1,1,Heal,20,None
12130101,1,1,1,Attack,100,None
12130102,1,1,1,Attack,60,None
12130103,1,1,1,Attack,50,None
12130104,1,1,1,Attack,100,None
10140101,1,1,1,Attack,100,None
10140102,1,1,1,Attack,60,None
10140103,1,1,1,Attack,100,None
13140101,1,1,1,Attack,100,None
13140102,1,1,1,Attack,60,None
13140103,1,1,1,Attack,100,None
13140104,1,1,1,Attack,100,None
13140104,2,1,1,Heal,20,None
12140101,1,1,1,Attack,100,None
12140102,1,1,1,Attack,60,None
12140103,1,1,1,Attack,50,None
12140104,1,1,1,Attack,100,None
10120201,1,1,1,Attack,100,None
10120202,1,1,1,Attack,60,None
10120203,1,1,1,Attack,100,None
13120201,1,1,1,Attack,100,None
13120202,1,1,1,Attack,60,None
13120203,1,1,1,Attack,100,None
13120204,1,1,1,Attack,100,None
13120204,2,1,1,Heal,20,None
12120201,1,1,1,Attack,100,None
12120202,1,1,1,Attack,60,None
12120203,1,1,1,Attack,50,None
12120204,1,1,1,Attack,100,None
13220101,1,1,1,Attack,100,None
13220102,1,1,1,Attack,60,None
13220103,1,1,1,Attack,50,None
13220201,1,1,1,Attack,100,None
13220202,1,1,1,Attack,100,None
13220203,1,1,1,Attack,100,None
13220203,2,1,1,Heal,20,None
80110102,1,1,1,Attack,100,None
80110103,1,1,1,Attack,50,None
12230102,1,1,1,Attack,100,None
12230103,1,1,1,Attack,100,None
12230105,1,1,1,Attack,100,None
12230106,1,1,1,Attack,100,None
12230201,1,1,1,Attack,100,None
12230202,1,1,1,Attack,60,None
12230203,1,1,1,Attack,50,None
12230204,1,1,1,Attack,60,None
12230205,1,1,1,Attack,50,None
12230206,1,1,1,Attack,50,None
12230301,1,1,1,Attack,100,None
12230301,2,1,1,Heal,20,None
12230302,1,1,1,Attack,100,None
80200101,1,1,1,Attack,50,None
80200102,1,1,1,Attack,100,None
80200103,1,1,1,Attack,50,None
80200104,1,1,1,Attack,100,None
80200105,1,1,1,Attack,50,None
80200106,1,1,1,Attack,100,None
80120101,1,1,1,Attack,50,None
80120102,1,1,1,Attack,100,None
80120103,1,1,1,Attack,50,None
80120104,1,1,1,Attack,100,None
80120105,1,1,1,Attack,50,None
80120106,1,1,1,Attack,100,None
80400101,1,1,1,Attack,100,None
80400102,1,1,1,Attack,50,None
80400103,1,1,1,Attack,100,None
80400104,1,1,1,Attack,100,None
80400105,1,1,1,Attack,50,None
80400106,3,1,1,Attack,50,None
80400107,1,1,1,Attack,50,None
80400108,1,1,1,Attack,100,None
80400109,1,1,1,Attack,50,None
10110202,1,1,1,Attack,100,None
10120301,1,1,1,Attack,100,None
13130202,1,1,1,Heal,20,None
13140201,1,1,1,Attack,100,None
13140202,1,1,1,Attack,60,None
13140203,1,1,1,Attack,50,None
80120202,1,1,1,Attack,60,None
80120203,1,1,1,Attack,100,None
80120204,1,1,1,Attack,50,None
80120206,1,1,1,Attack,50,None
80120208,1,1,1,Attack,50,None
80120210,1,1,1,Attack,50,None
80120212,1,1,1,Attack,50,None
10210101,1,1,1,Attack,60,None
10210102,1,1,1,Attack,50,None
10210103,1,1,1,Attack,50,None
13220302,1,1,1,Attack,100,None
13220303,1,1,1,Attack,100,None
12240101,1,1,1,Attack,100,None
12240102,1,1,1,Attack,100,None
12240102,2,1,1,Heal,20,None
12240103,1,1,1,Attack,100,None
10230101,1,1,1,Attack,60,None
10230102,1,1,1,Attack,50,None
10230103,1,1,1,Attack,50,None
13310102,1,1,1,Attack,60,None
13310103,1,1,1,Attack,100,None
13310104,1,1,1,Attack,50,None
13310106,1,1,1,Attack,50,None
13310108,1,1,1,Attack,50,None
13310110,1,1,1,Attack,50,None
13310112,1,1,1,Attack,50,None
10220101,1,1,1,Attack,100,None
10220102,1,1,1,Attack,100,None
10220102,2,1,1,Heal,20,None
80120301,1,1,1,Attack,60,None
80120302,1,1,1,Attack,100,None
80120303,1,1,1,Attack,50,None
80120305,1,1,1,Attack,50,None
80120307,1,1,1,Attack,50,None
80120309,1,1,1,Attack,50,None
80120311,1,1,1,Attack,50,None
80130101,1,1,1,Attack,50,None
80130102,1,1,1,Attack,100,None
80130103,1,1,1,Attack,100,None
80130105,1,1,1,Attack,50,None
80130106,1,1,1,Attack,100,None
80130107,1,1,1,Attack,100,None
80130109,1,1,1,Attack,50,None
80130110,1,1,1,Attack,100,None
80130111,1,1,1,Attack,100,None
12220101,1,1,1,Attack,60,None
12220102,1,1,1,Attack,50,None
12220103,1,1,1,Attack,50,None
13310202,1,1,1,Attack,60,None
13310203,1,1,1,Attack,100,None
13310204,1,1,1,Attack,50,None
13310206,1,1,1,Attack,50,None
13310208,1,1,1,Attack,50,None
13310210,1,1,1,Attack,50,None
13310212,1,1,1,Attack,50,None
12230401,1,1,1,Attack,100,None
12230402,1,1,1,Attack,100,None
12230402,2,1,1,Heal,20,None
80120401,1,1,1,Attack,60,None
80120402,1,1,1,Attack,100,None
80120403,1,1,1,Attack,50,None
80120405,1,1,1,Attack,50,None
80120407,1,1,1,Attack,50,None
80120409,1,1,1,Attack,50,None
80120411,1,1,1,Attack,50,None
80130201,1,1,1,Attack,50,None
80130202,1,1,1,Attack,100,None
80130203,1,1,1,Attack,100,None
80130205,1,1,1,Attack,50,None
80130206,1,1,1,Attack,100,None
80130207,1,1,1,Attack,100,None
80130209,1,1,1,Attack,50,None
80130210,1,1,1,Attack,100,None
80130211,1,1,1,Attack,100,None
80300102,1,1,1,Attack,50,None
80300103,1,1,1,Attack,100,None
80300104,1,1,1,Attack,100,None
80300105,1,1,1,Attack,100,None
80300107,1,1,1,Attack,50,None
80300108,1,1,1,Attack,100,None
80300109,1,1,1,Attack,100,None
80300110,1,1,1,Attack,100,None
80300112,1,1,1,Attack,50,None
80300113,1,1,1,Attack,60,None
80300114,1,1,1,Attack,60,None
80300115,1,1,1,Attack,60,None
80120501,1,1,1,Attack,60,None
80120502,1,1,1,Attack,100,None
80120503,1,1,1,Attack,50,None
80120505,1,1,1,Attack,60,None
80120506,1,1,1,Attack,100,None
80120507,1,1,1,Attack,50,None
80120509,1,1,1,Attack,60,None
80120510,1,1,1,Attack,100,None
80120511,1,1,1,Attack,50,None
80110201,1,1,1,Attack,50,None
80110202,1,1,1,Attack,100,None
80110203,1,1,1,Attack,100,None
80110205,1,1,1,Attack,50,None
80110206,1,1,1,Attack,100,None
80110207,1,1,1,Attack,100,None
80110209,1,1,1,Attack,50,None
80110210,1,1,1,Attack,100,None
80110211,1,1,1,Attack,100,None
80300202,1,1,1,Attack,50,None
80300203,1,1,1,Attack,100,None
80300204,1,1,1,Attack,100,None
80300205,1,1,1,Attack,100,None
80300207,1,1,1,Attack,50,None
80300208,1,1,1,Attack,100,None
80300209,1,1,1,Attack,100,None
80300210,1,1,1,Attack,100,None
80300212,1,1,1,Attack,50,None
80300213,1,1,1,Attack,60,None
80300214,1,1,1,Attack,60,None
80300215,1,1,1,Attack,60,None
80400202,1,1,1,Attack,50,None
80400203,1,1,1,Attack,60,None
80400204,1,1,1,Attack,60,None
80400205,1,1,1,Attack,60,None
80400207,1,1,1,Attack,50,None
80400208,1,1,1,Attack,50,None
80400209,1,1,1,Attack,50,None
80400210,1,1,1,Attack,60,None
80400212,1,1,1,Attack,50,None
80400213,1,1,1,Attack,50,None
80400214,1,1,1,Attack,50,None
80400215,1,1,1,Attack,50,None
80140201,1,1,1,Attack,100,None
80140204,1,1,1,Attack,35,None
80140205,1,1,1,Attack,55,None
80140207,1,1,1,Attack,100,None
80140209,1,1,1,Attack,100,None
80140211,1,1,1,Attack,100,None
80140212,1,1,1,Attack,35,None
80300402,1,1,1,Attack,100,None
80300404,1,1,1,Attack,40,None
80300405,1,1,1,Attack,40,None
80300408,1,1,1,Attack,55,None
80300410,1,1,1,Attack,55,None
80300412,1,1,1,Attack,30,None
80300414,1,1,1,Attack,35,None
80300417,1,1,1,Attack,100,None
80300419,1,1,1,Attack,30,None
80300420,1,1,1,Attack,55,None
80300502,1,1,1,Attack,100,None
80300504,1,1,1,Attack,100,None
80300508,1,1,1,Attack,100,None
80300510,1,1,1,Attack,55,None
80300512,1,1,1,Attack,55,None
80300514,1,1,1,Attack,55,None
80300516,1,1,1,Attack,40,None
80300520,1,1,1,Attack,100,None
80300522,1,1,1,Attack,55,None
80300524,1,1,1,Attack,55,None
80300526,1,1,1,Attack,55,None
80300528,1,1,1,Attack,35,None
80400302,1,1,1,Attack,55,None
80400303,1,1,1,Attack,55,None
80400304,1,1,1,Attack,55,None
80400306,1,1,1,Attack,55,None
80400308,1,1,1,Attack,55,None
80400310,1,1,1,Attack,55,None
80400311,1,1,1,Attack,55,None
80400312,1,1,1,Attack,55,None
80400314,1,1,1,Attack,35,None
80400315,1,1,1,Attack,30,None
80400316,1,1,1,Attack,30,None
80400319,1,1,1,Attack,40,None
80400321,1,1,1,Attack,40,None
80400323,1,1,1,Attack,40,None
80400324,1,1,1,Attack,40,None
80400325,1,1,1,Attack,40,None
80400327,1,1,1,Attack,35,None
80400328,1,1,1,Attack,30,None
80400329,1,1,1,Attack,30,None
80110303,1,1,1,Attack,55,None
80110309,2,1,1,TargetMaxHP,5,PanelCount
80110311,1,1,1,Attack,35,None
80300602,1,1,1,Attack,35,None
80300605,1,1,1,Attack,55,None
80300606,2,1,1,TargetMaxHP,15,PanelCount
80300607,1,1,1,MaxHP,20,None
80300609,1,1,1,Attack,55,None
80300613,1,1,1,Attack,30,None
80300615,2,1,1,TargetMaxHP,25,PanelCount
80300616,1,1,1,MaxHP,20,None
80300621,1,1,1,Attack,100,None
80300623,1,1,1,Attack,35,None
80300625,2,1,1,TargetMaxHP,15,PanelCount
80300626,1,1,1,MaxHP,20,None
80300703,1,1,1,Attack,55,None
80300705,1,1,1,Attack,50,None
80300707,1,1,1,Attack,35,None
80300710,1,1,1,TargetHP,99,None
80300712,1,1,1,TargetHP,99,None
80300719,2,1,1,TargetMaxHP,2,PanelCount
80300721,1,1,1,Attack,35,None
80300722,2,1,1,TargetMaxHP,5,PanelCount
80300723,1,1,1,TargetMaxHP,10,None
80110404,2,1,1,MaxHP,2,PanelCount
80110405,2,1,1,TargetMaxHP,4,PanelCount
80110406,1,1,1,TargetMaxHP,10,None
80130402,1,1,1,Attack,100,None
80130405,1,1,1,TargetMaxHP,10,None
80130407,1,1,1,Attack,35,None
80300802,1,1,1,TargetMaxHP,5,None
80300805,1,1,1,TargetMaxHP,10,None
80300809,1,1,1,TargetMaxHP,8,None
80300811,1,1,1,Attack,35,None
80300812,1,1,1,TargetMaxHP,15,None
80300813,2,1,1,TargetMaxHP,2,PanelCount
80300814,2,1,1,TargetMaxHP,30,PanelCount
80300815,1,1,1,TargetMaxHP,20,None
80300902,1,1,1,TargetMaxHP,30,None
80300905,1,1,1,TargetMaxHP,30,None
80300908,1,1,1,TargetHP,3,None
80300909,1,1,1,TargetHP,70,None
80300913,2,1,1,TargetMaxHP,2,PanelCount
80110503,1,1,1,Attack,100,None
80110505,1,1,1,Attack,35,None
80110506,2,1,1,TargetMaxHP,8,PanelCount
80301002,1,1,1,TargetMaxHP,8,None
80301005,2,1,1,MaxHP,1,PanelCount
80301006,1,1,1,TargetHP,20,None
80301010,1,1,1,TargetMaxHP,8,None
80301014,1,1,1,TargetMaxHP,8,None
10120401,1,1,1,Attack,100,None
12130201,1,1,1,Attack,100,None
13110202,1,1,1,Attack,100,None
80301102,1,1,1,TargetHP,30,None
80301103,1,1,1,TargetHP,50,None
80300301,1,1,1,TargetHP,70,None
80300303,1,1,1,TargetHP,30,None
80300306,1,1,1,TargetHP,40,None
101100301,1,1,1,Attack,100,None
101200501,1,1,1,Attack,100,None
101300201,1,1,1,Attack,100,None
101400201,1,1,1,Attack,100,None
167100101,1,1,1,Attack,100,None
167100103,1,1,1,Attack,110,None
167200101,1,1,1,Attack,100,None
167200103,1,1,1,Attack,110,None
167300101,1,1,1,Attack,100,None
167300103,1,1,1,Attack,110,None
167400101,1,1,1,Attack,100,None
167400103,1,1,1,Attack,110,None
143100101,1,1,1,Attack,100,None
143100102,1,1,1,Attack,100,None
143200101,1,1,1,Attack,100,None
143200102,1,1,1,Attack,100,None
143300101,1,1,1,Attack,100,None
143300102,1,1,1,Attack,100,None
143400101,1,1,1,Attack,100,None
143400102,1,1,1,Attack,100,None
164100102,1,1,1,Attack,100,None
164200102,1,1,1,Attack,100,None
164300102,1,1,1,Attack,100,None
164400102,1,1,1,Attack,100,None
154100102,1,1,1,Attack,55,None
154100103,1,1,1,Attack,100,None
154200102,1,1,1,Attack,55,None
154200103,1,1,1,Attack,100,None
154300102,1,1,1,Attack,55,None
154300103,1,1,1,Attack,100,None
154400102,1,1,1,Attack,55,None
154400103,1,1,1,Attack,100,None
146100101,1,1,1,Attack,55,None
146100102,1,1,1,Attack,100,None
146200101,1,1,1,Attack,55,None
146200102,1,1,1,Attack,100,None
146300101,1,1,1,Attack,55,None
146300102,1,1,1,Attack,100,None
146400101,1,1,1,Attack,55,None
146400102,1,1,1,Attack,100,None
153100101,1,1,1,Attack,100,None
153100102,1,1,1,Attack,40,None
153100104,1,1,1,TargetMaxHP,7,PanelCount
153200101,1,1,1,Attack,100,None
153200102,1,1,1,Attack,40,None
153200104,1,1,1,TargetMaxHP,7,PanelCount
153300101,1,1,1,Attack,100,None
153300102,1,1,1,Attack,40,None
153300104,1,1,1,TargetMaxHP,7,PanelCount
153400101,1,1,1,Attack,100,None
153400102,1,1,1,Attack,40,None
153400104,1,1,1,TargetMaxHP,7,PanelCount
131100303,1,1,1,Attack,35,None
131100304,1,1,1,Attack,100,None
131100306,1,1,1,Attack,100,None
131100307,1,1,1,TargetMaxHP,20,None
131100308,1,1,1,Attack,100,None
131100310,1,1,1,Attack,100,None
131200303,1,1,1,Attack,35,None
131200304,1,1,1,Attack,100,None
131200306,1,1,1,Attack,100,None
131200307,1,1,1,TargetMaxHP,20,None
131200308,1,1,1,Attack,100,None
131200310,1,1,1,Attack,100,None
131300303,1,1,1,Attack,35,None
131300304,1,1,1,Attack,100,None
131300306,1,1,1,Attack,100,None
131300307,1,1,1,TargetMaxHP,20,None
131300308,1,1,1,Attack,100,None
131300310,1,1,1,Attack,100,None
131400303,1,1,1,Attack,35,None
131400304,1,1,1,Attack,100,None
131400306,1,1,1,Attack,100,None
131400307,1,1,1,TargetMaxHP,20,None
131400308,1,1,1,Attack,100,None
131400310,1,1,1,Attack,100,None
140100103,1,1,1,Attack,100,None
140100105,1,1,1,Attack,100,None
140200103,1,1,1,Attack,100,None
140200105,1,1,1,Attack,100,None
140300103,1,1,1,Attack,100,None
140300105,1,1,1,Attack,100,None
140400103,1,1,1,Attack,100,None
140400105,1,1,1,Attack,100,None
131400402,1,1,1,Attack,35,None
131400404,1,1,1,TargetMaxHP,8,None
131100402,1,1,1,Attack,100,None
131100404,1,1,1,Attack,100,None
131100406,1,1,1,Attack,100,None
131100407,1,1,1,TargetMaxHP,20,None
131100408,1,1,1,TargetMaxHP,8,None
140100202,1,1,1,Attack,100,None
140100204,1,1,1,Attack,100,None
801100601,1,1,1,Attack,100,None
801100602,1,1,1,Attack,35,None
801100604,1,1,1,Attack,100,None
801100606,1,1,1,Attack,100,None
801100607,1,1,1,Attack,100,None
801100608,1,1,1,Attack,35,None
801100609,1,1,1,TargetMaxHP,12,None
802000201,1,1,1,Attack,100,None
802000202,1,1,1,Attack,100,None
802000203,1,1,1,Attack,100,None
802000205,1,1,1,Attack,100,None
802000209,1,1,1,Attack,35,None
802000211,1,1,1,Attack,100,None
802000212,1,1,1,Attack,100,None
802000215,1,1,1,TargetMaxHP,12,None
801300501,1,1,1,Attack,100,None
801300502,1,1,1,Attack,35,None
801300509,1,1,1,TargetMaxHP,1,PanelCount
801300511,1,1,1,TargetMaxHP,10,PanelCount
801200703,1,1,1,TargetMaxHP,1,PanelCount
801200705,1,1,1,Attack,100,None
801200707,1,1,1,Attack,100,None
801200708,1,1,1,Attack,100,None
801200709,1,1,1,Attack,35,None
801200710,1,1,1,TargetMaxHP,10,None
804000401,1,1,1,Attack,100,None
804000402,1,1,1,Attack,100,None
804000403,1,1,1,Attack,100,None
804000406,1,1,1,TargetMaxHP,1,PanelCount
804000407,1,1,1,TargetHP,60,None
804000412,1,1,1,Attack,35,None
804000413,1,1,1,Attack,100,None
804000415,1,1,1,TargetMaxHP,15,None
102100301,1,1,1,Attack,100,None
102100302,1,1,1,Attack,60,None
102100303,1,1,1,Attack,60,None
102200301,1,1,1,Attack,100,None
102200302,1,1,1,Attack,60,None
102200303,1,1,1,Attack,60,None
102300301,1,1,1,Attack,100,None
102300302,1,1,1,Attack,60,None
102300303,1,1,1,Attack,60,None
102400201,1,1,1,Attack,100,None
102400202,1,1,1,Attack,60,None
102400203,1,1,1,Attack,60,None
169100102,1,1,1,Attack,60,None
169100103,1,1,1,Attack,60,None
169200102,1,1,1,Attack,60,None
169200103,1,1,1,Attack,60,None
169300102,1,1,1,Attack,60,None
169300103,1,1,1,Attack,60,None
169400102,1,1,1,Attack,60,None
169400103,1,1,1,Attack,60,None
149100101,1,1,1,Attack,100,None
149100103,1,1,1,Attack,100,None
149100105,1,1,1,Attack,35,None
149200101,1,1,1,Attack,100,None
149200103,1,1,1,Attack,100,None
149200105,1,1,1,Attack,35,None
149300101,1,1,1,Attack,100,None
149300103,1,1,1,Attack,100,None
149300105,1,1,1,Attack,35,None
149400101,1,1,1,Attack,100,None
149400103,1,1,1,Attack,100,None
149400105,1,1,1,Attack,35,None
159100101,1,1,1,Attack,100,None
159100102,1,1,1,Attack,50,None
159100103,1,1,1,Attack,50,None
159100104,1,1,1,Attack,25,None
159200101,1,1,1,Attack,100,None
159200102,1,1,1,Attack,50,None
159200103,1,1,1,Attack,50,None
159200104,1,1,1,Attack,25,None
159300101,1,1,1,Attack,100,None
159300102,1,1,1,Attack,50,None
159300103,1,1,1,Attack,50,None
159300104,1,1,1,Attack,25,None
159400101,1,1,1,Attack,100,None
159400102,1,1,1,Attack,50,None
159400103,1,1,1,Attack,50,None
159400104,1,1,1,Attack,25,None
150100102,1,1,1,Attack,100,None
150100103,1,1,1,Attack,100,None
150100106,1,1,1,TargetMaxHP,1,PanelCount
150100107,1,1,1,Attack,50,None
150200102,1,1,1,Attack,100,None
150200103,1,1,1,Attack,100,None
150200106,1,1,1,TargetMaxHP,1,PanelCount
150200107,1,1,1,Attack,50,None
150300102,1,1,1,Attack,100,None
150300103,1,1,1,Attack,100,None
150300106,1,1,1,TargetMaxHP,1,PanelCount
150300107,1,1,1,Attack,50,None
150400102,1,1,1,Attack,100,None
150400103,1,1,1,Attack,100,None
150400106,1,1,1,TargetMaxHP,1,PanelCount
150400107,1,1,1,Attack,50,None
155100103,1,1,1,Attack,100,None
155100105,1,1,1,Attack,100,None
155200103,1,1,1,Attack,100,None
155200105,1,1,1,Attack,100,None
155300103,1,1,1,Attack,100,None
155300105,1,1,1,Attack,100,None
155400103,1,1,1,Attack,100,None
155400105,1,1,1,Attack,100,None
151100102,1,1,1,Attack,100,None
151100106,1,1,1,Attack,35,None
151200102,1,1,1,Attack,100,None
151200106,1,1,1,Attack,35,None
151300102,1,1,1,Attack,100,None
151300106,1,1,1,Attack,35,None
151400102,1,1,1,Attack,100,None
151400106,1,1,1,Attack,35,None
157100106,1,1,1,Attack,100,None
157100108,1,1,1,TargetMaxHP,10,None
157200106,1,1,1,Attack,100,None
157200108,1,1,1,TargetMaxHP,10,None
157300106,1,1,1,Attack,100,None
157300108,1,1,1,TargetMaxHP,10,None
157400106,1,1,1,Attack,100,None
157400108,1,1,1,TargetMaxHP,10,None
141100101,1,1,1,Attack,100,None
141100104,1,1,1,TargetMaxHP,8,None
141200101,1,1,1,Attack,100,None
141200104,1,1,1,TargetMaxHP,8,None
141300101,1,1,1,Attack,100,None
141300104,1,1,1,TargetMaxHP,8,None
141400101,1,1,1,Attack,100,None
141400104,1,1,1,TargetMaxHP,8,None
149100205,1,1,1,TargetMaxHP,10,None
149400202,1,1,1,Attack,60,None
149400203,1,1,1,Attack,60,None
149400204,1,1,1,Attack,100,None
149400207,1,1,1,TargetMaxHP,5,None
149400208,1,1,1,Attack,100,None
157200201,1,1,1,Attack,60,None
157200202,1,1,1,Attack,60,None
157200203,1,1,1,Attack,50,None
157200204,1,1,1,Attack,50,None
157200205,1,1,1,Attack,50,None
157200206,1,1,1,Attack,40,None
157300201,1,1,1,Attack,100,None
157300203,1,1,1,Attack,100,None
157300205,1,1,1,Attack,100,None
157300208,1,1,1,TargetMaxHP,1,None
141300203,1,1,1,Attack,100,None
141300204,1,1,1,TargetMaxHP,10,None
141200201,1,1,1,Attack,100,None
141200202,1,1,1,Attack,100,None
500300102,1,1,1,Attack,100,None
500300103,1,1,1,Attack,100,None
500300104,1,1,1,SkillTotalDamaged,300,None
500300106,1,1,1,TargetMaxHP,10,None
500300108,1,1,1,Attack,100,None
500300110,1,1,1,Attack,100,None
500300112,1,1,1,TargetMaxHP,1,PanelCount
500300114,1,1,1,TargetMaxHP,15,None
500300115,1,1,1,SkillTotalDamaged,300,None
806000102,1,1,1,Attack,100,None
806000104,1,1,1,Attack,100,None
806000105,1,1,1,Attack,100,None
806000108,1,1,1,TargetMaxHP,15,None
806000110,1,1,1,Attack,100,None
806000111,1,1,1,Attack,100,None
806000113,1,1,1,Attack,100,None
806000116,1,1,1,TargetMaxHP,1,PanelCount
806000117,1,1,1,TargetMaxHP,18,None
500100104,1,1,1,TargetMaxHP,5,PanelCount
500100105,1,1,1,Attack,100,None
500100202,1,1,1,Attack,100,None
500100207,1,1,1,TargetMaxHP,1,PanelCount
500100208,1,1,1,TargetMaxHP,10,None
803001201,1,1,1,TargetHP,30,None
803001203,1,1,1,TargetHP,30,None
803001206,1,1,1,TargetHP,40,None
803001210,1,1,1,Attack,100,None
803001214,1,1,1,Attack,100,None
803001215,1,1,1,Attack,100,None
803001218,1,1,1,TargetMaxHP,8,None
103100101,1,1,1,Attack,100,None
103100102,1,1,1,Attack,60,None
103100103,1,1,1,Attack,60,None
103100104,1,1,1,Attack,100,None
103200101,1,1,1,Attack,100,None
103200102,1,1,1,Attack,60,None
103200103,1,1,1,Attack,60,None
103200104,1,1,1,Attack,100,None
103300101,1,1,1,Attack,100,None
103300102,1,1,1,Attack,60,None
103300103,1,1,1,Attack,60,None
103300104,1,1,1,Attack,100,None
103400101,1,1,1,Attack,100,None
103400102,1,1,1,Attack,60,None
103400103,1,1,1,Attack,60,None
103400104,1,1,1,Attack,100,None
165100101,1,1,1,Attack,100,None
165100104,1,1,1,TargetMaxHP,10,PanelCount
165100106,1,1,1,TargetMaxHP,8,None
165200101,1,1,1,Attack,100,None
165200104,1,1,1,TargetMaxHP,10,PanelCount
165200106,1,1,1,TargetMaxHP,8,None
165300101,1,1,1,Attack,100,None
165300104,1,1,1,TargetMaxHP,10,PanelCount
165300106,1,1,1,TargetMaxHP,8,None
165400101,1,1,1,Attack,100,None
165400104,1,1,1,TargetMaxHP,10,PanelCount
165400106,1,1,1,TargetMaxHP,8,None
158100101,1,1,1,Attack,100,None
158100103,1,1,1,Attack,100,None
158100105,1,1,1,Attack,100,None
158100107,1,1,1,Attack,100,None
158100109,1,1,1,Attack,100,None
158200101,1,1,1,Attack,100,None
158200103,1,1,1,Attack,100,None
158200105,1,1,1,Attack,100,None
158200107,1,1,1,Attack,100,None
158200109,1,1,1,Attack,100,None
158300101,1,1,1,Attack,100,None
158300103,1,1,1,Attack,100,None
158300105,1,1,1,Attack,100,None
158300107,1,1,1,Attack,100,None
158300109,1,1,1,Attack,100,None
158400101,1,1,1,Attack,100,None
158400103,1,1,1,Attack,100,None
158400105,1,1,1,Attack,100,None
158400107,1,1,1,Attack,100,None
158400109,1,1,1,Attack,100,None
168100101,1,1,1,Attack,100,None
168100104,1,1,1,Attack,100,None
168100106,1,1,1,Attack,35,None
168100108,1,1,1,TargetMaxHP,1,PanelCount
168200101,1,1,1,Attack,100,None
168200104,1,1,1,Attack,100,None
168200106,1,1,1,Attack,35,None
168200108,1,1,1,TargetMaxHP,1,PanelCount
168300101,1,1,1,Attack,100,None
168300104,1,1,1,Attack,100,None
168300106,1,1,1,Attack,35,None
168300108,1,1,1,TargetMaxHP,1,PanelCount
168400101,1,1,1,Attack,100,None
168400104,1,1,1,Attack,100,None
168400106,1,1,1,Attack,35,None
168400108,1,1,1,TargetMaxHP,1,PanelCount
148100102,1,1,1,Attack,100,None
148100106,1,1,1,Attack,100,None
148100107,1,1,1,Attack,100,None
148100108,1,1,1,TargetMaxHP,8,None
148200102,1,1,1,Attack,100,None
148200106,1,1,1,Attack,100,None
148200107,1,1,1,Attack,100,None
148200108,1,1,1,TargetMaxHP,8,None
148300102,1,1,1,Attack,100,None
148300106,1,1,1,Attack,100,None
148300107,1,1,1,Attack,100,None
148300108,1,1,1,TargetMaxHP,8,None
148400102,1,1,1,Attack,100,None
148400106,1,1,1,Attack,100,None
148400107,1,1,1,Attack,100,None
148400108,1,1,1,TargetMaxHP,8,None
162100101,1,1,1,Attack,100,None
162100105,1,1,1,Attack,40,None
162100106,1,1,1,Attack,70,None
162100107,1,1,1,Attack,90,None
162100109,1,1,1,Attack,100,None
162200101,1,1,1,Attack,100,None
162200105,1,1,1,Attack,40,None
162200106,1,1,1,Attack,70,None
162200107,1,1,1,Attack,90,None
162200109,1,1,1,Attack,100,None
162300101,1,1,1,Attack,100,None
162300105,1,1,1,Attack,40,None
162300106,1,1,1,Attack,70,None
162300107,1,1,1,Attack,90,None
162300109,1,1,1,Attack,100,None
162400101,1,1,1,Attack,100,None
162400105,1,1,1,Attack,40,None
162400106,1,1,1,Attack,70,None
162400107,1,1,1,Attack,90,None
162400109,1,1,1,Attack,100,None
156100103,1,1,1,Attack,100,None
156100106,1,1,1,Attack,100,None
156100107,1,1,1,Attack,100,None
156100108,1,1,1,TargetMaxHP,8,None
156200103,1,1,1,Attack,100,None
156200106,1,1,1,Attack,100,None
156200107,1,1,1,Attack,100,None
156200108,1,1,1,TargetMaxHP,8,None
156300103,1,1,1,Attack,100,None
156300106,1,1,1,Attack,100,None
156300107,1,1,1,Attack,100,None
156300108,1,1,1,TargetMaxHP,8,None
156400103,1,1,1,Attack,100,None
156400106,1,1,1,Attack,100,None
156400107,1,1,1,Attack,100,None
156400108,1,1,1,TargetMaxHP,8,None
152100103,1,1,1,Attack,100,None
152200103,1,1,1,Attack,100,None
152300103,1,1,1,Attack,100,None
152400103,1,1,1,Attack,100,None
514100103,1,1,1,Attack,100,None
514100105,1,1,1,Attack,100,None
514100107,1,1,1,Attack,60,None
514100108,1,1,1,Attack,60,None
514100109,1,1,1,TargetMaxHP,8,None
514100111,1,1,1,TargetMaxHP,8,None
514200103,1,1,1,Attack,100,None
514200105,1,1,1,Attack,100,None
514200107,1,1,1,Attack,60,None
514200108,1,1,1,Attack,60,None
514200109,1,1,1,TargetMaxHP,8,None
514200111,1,1,1,TargetMaxHP,8,None
514300103,1,1,1,Attack,100,None
514300105,1,1,1,Attack,100,None
514300107,1,1,1,Attack,60,None
514300108,1,1,1,Attack,60,None
514300109,1,1,1,TargetMaxHP,8,None
514300111,1,1,1,TargetMaxHP,8,None
514400103,1,1,1,Attack,100,None
514400105,1,1,1,Attack,100,None
514400107,1,1,1,Attack,60,None
514400108,1,1,1,Attack,60,None
514400109,1,1,1,TargetMaxHP,8,None
514400111,1,1,1,TargetMaxHP,8,None
142100102,1,1,1,Attack,100,None
142100109,1,1,1,Attack,5,PanelCount
142200102,1,1,1,Attack,100,None
142200109,1,1,1,Attack,5,PanelCount
142300102,1,1,1,Attack,100,None
142300109,1,1,1,Attack,5,PanelCount
142400102,1,1,1,Attack,100,None
142400109,1,1,1,Attack,5,PanelCount
142300202,1,1,1,Attack,100,None
142200201,1,1,1,Attack,100,None
142200203,1,1,1,Attack,100,None
142200204,1,1,1,Attack,100,None
142200207,1,1,1,Attack,5,PanelCount
501200102,1,1,1,Attack,50,None
501200104,1,1,1,Attack,50,None
501200106,1,1,1,Attack,60,None
501200107,1,1,1,Attack,60,None
501200108,1,1,1,Attack,100,None
501200111,1,1,1,Attack,100,None
501200114,1,1,1,Attack,60,None
501200115,1,1,1,Attack,60,None
501200118,1,1,1,TargetMaxHP,12,None
148400203,1,1,1,Attack,200,None
148400205,1,1,1,TargetMaxHP,10,None
148100204,1,1,1,Attack,200,None
148100205,1,1,1,Attack,60,None
148100206,1,1,1,Attack,60,None
148100207,1,1,1,TargetMaxHP,10,None
807000102,1,1,1,Attack,100,None
807000105,1,1,1,Attack,60,None
807000106,1,1,1,Attack,60,None
807000108,1,1,1,Attack,50,None
807000111,1,1,1,Attack,10,PanelCount
807000116,1,1,1,Attack,100,None
807000119,1,1,1,Attack,30,None
807000120,1,1,1,Attack,50,None
807000121,1,1,1,Attack,70,None
807000124,1,1,1,Attack,25,None
807000125,1,1,1,Attack,25,None
807000128,1,1,1,Attack,5,PanelCount
801300606,1,1,1,TargetMaxHP,10,None
801300608,1,1,1,Attack,100,None
801300611,1,1,1,Attack,100,None
801300614,1,1,1,TargetMaxHP,10,None
