﻿OpenItemId,ItemCategoryId,ItemId,ItemNum,Span
1,Gem,1002,300,60
2,KeyItem,2001,100,60
3,Gem,1002,200,60
10201,Gem,1002,30,3600
102013,Event,4402,1,86400
102014,Event,4401,1,86400
10202,Gem,1002,30,3600
102023,Event,4402,1,86400
102024,Event,4401,1,86400
10203,Gem,1002,30,3600
102033,Event,4402,1,86400
102034,Event,4401,1,86400
10204,Gem,1002,30,3600
102043,Event,4402,1,86400
102044,Event,4401,1,86400
10205,Gem,1002,30,3600
102053,Event,4402,1,86400
102054,Event,4401,1,86400
10206,Gem,1002,30,3600
102063,Event,4402,1,86400
102064,Event,4401,1,86400
10207,Gem,1002,30,3600
102073,Event,4402,1,86400
102074,Event,4401,1,86400
