﻿Id,SexNOther,BornIn,Job,Bodily,Hair,Personality
1001,0,0,0,0,0,0
1002,0,0,0,0,0,0
1003,0,0,0,0,0,0
1004,0,0,0,0,0,0
1005,0,0,0,0,0,0
1006,0,0,0,0,0,0
1007,0,0,0,0,0,0
1008,0,0,0,0,0,0
1009,0,0,0,0,0,0
1010,0,0,0,0,0,0
1011,0,0,0,0,0,0
1012,0,0,0,0,0,0
1013,0,0,0,0,0,0
1014,0,0,0,0,0,0
1015,0,0,0,0,0,0
1016,0,0,0,0,0,0
1017,0,0,0,0,0,0
2001,0,0,0,0,0,0
2002,0,0,0,0,0,0
2003,0,0,0,0,0,0
2004,0,0,0,0,0,0
2005,0,0,0,0,0,0
2006,0,0,0,0,0,0
2007,0,0,0,0,0,0
2008,0,0,0,0,0,0
2009,0,0,0,0,0,0
2010,0,0,0,0,0,0
2011,0,0,0,0,0,0
2012,0,0,0,0,0,0
2013,0,0,0,0,0,0
3001,0,0,0,0,0,0
3002,0,0,0,0,0,0
3003,0,0,0,0,0,0
3004,0,0,0,0,0,0
3005,0,0,0,0,0,0
3006,0,0,0,0,0,0
3007,0,0,0,0,0,0
3008,0,0,0,0,0,0
3009,0,0,0,0,0,0
3010,0,0,0,0,0,0
3011,0,0,0,0,0,0
3012,0,0,0,0,0,0
3013,0,0,0,0,0,0
3014,0,0,0,0,0,0
3015,0,0,0,0,0,0
3016,0,0,0,0,0,0
4001,0,0,0,0,0,0
4002,0,0,0,0,0,0
4003,0,0,0,0,0,0
4004,0,0,0,0,0,0
4005,0,0,0,0,0,0
4006,0,0,0,0,0,0
4007,0,0,0,0,0,0
4008,0,0,0,0,0,0
4009,0,0,0,0,0,0
4010,0,0,0,0,0,0
4011,0,0,0,0,0,0
4012,0,0,0,0,0,0
9999,0,0,0,0,0,0
10001,0,0,0,0,0,0
10002,0,0,0,0,0,0
10003,0,0,0,0,0,0
10004,0,0,0,0,0,0
20001,0,0,0,0,0,0
20002,0,0,0,0,0,0
20003,0,0,0,0,0,0
20004,0,0,0,0,0,0
30001,0,0,0,0,0,0
30002,0,0,0,0,0,0
30003,0,0,0,0,0,0
30004,0,0,0,0,0,0
30005,0,0,0,0,0,0
30006,0,0,0,0,0,0
30007,0,0,0,0,0,0
40001,0,0,0,0,0,0
40002,0,0,0,0,0,0
40003,0,0,0,0,0,0
40004,0,0,0,0,0,0
40005,0,0,0,0,0,0
90001,0,0,0,0,0,0
90002,0,0,0,0,0,0
90003,0,0,0,0,0,0
90004,0,0,0,0,0,0
