﻿Id,FullName,Name,Rarity,Element,Attack,Hp,Heal,Defance,CriticalRatio,CriticalScale,TapCount,SkillId,AbilityId,SkillTreeId,ProficiencyId,LimitBreakId,MainRole,AtkEffect
1001,カイ・ロストマン,カイ,N,Blue,987,818,818,197,705,705,3,10011,10011,1001,1,1,Balance,23
1002,クロナ・オルコット,クロナ,N,Red,1269,451,677,141,705,987,3,10021,10021,1002,1,1,Attacker,6
1003,アリア,アリア,N,Yerrow,620,987,1269,113,592,649,3,10031,10031,1003,1,1,Healer,13
1004,ノア・ロストマン,ノア,N,Green,818,818,987,197,705,705,3,10041,10041,1004,1,1,Balance,16
1005,謎の男,謎の男,N,Blue,1269,451,677,141,705,987,3,10051,10051,1001,1,1,Attacker,23
1006,アガリア・レッドウィッチ,アガリア,N,Red,909,909,909,220,971,783,3,10061,10061,1006,1,1,Balance,14
1007,ルイーザ・ブルーウィッチ,ルイーザ,N,Blue,1535,1009,1973,176,965,921,3,10071,10071,1007,1,1,Healer,15
1008,マティナ・グリーンウィッチ,マティナ,N,Green,413,658,846,75,395,432,3,10081,10081,1008,1,1,Healer,16
1009,ナターサ・イエローウィッチ,ナターサ,N,Yerrow,815,1410,721,235,752,752,3,10091,10091,1009,1,1,Tunk,13
1010,エクロス・レディメリア,エクロス,N,Red,1973,1053,701,219,1535,1096,3,10101,10101,1010,1,1,Attacker,22
1011,アスモル・ブルメリア,アスモル,N,Blue,395,846,357,94,658,470,3,10111,10111,1011,1,1,Tunk,23
1012,ハスティ・グリンメリア,ハスティ,N,Green,815,1410,721,235,752,752,3,10121,10121,1012,1,1,Tunk,24
1013,サビィ・イエリア,サビィ,N,Yerrow,1667,1009,1228,439,1053,1184,3,10131,10131,1013,1,1,Defender,21
1014,ホドリコ・レッドスナイプル,ホドリコ,N,Red,545,545,545,132,470,583,3,10141,10141,1014,1,1,Balance,10
1015,クレイバー・ブルスナイプル,クレイバー,N,Blue,1410,1097,470,157,815,752,3,10151,10151,1015,1,1,Attacker,11
1016,ノジル・グリンスナイプル,ノジル,N,Green,1973,1140,1096,351,1009,1009,3,10161,10161,1016,1,1,Attacker,12
1017,ハフナー・イロスナイプル,ハフナー,N,Yerrow,846,282,658,94,451,489,3,10171,10171,1017,1,1,Attacker,9
2001,兎沢ガク,ガク,R,Red,1371,731,488,153,1066,762,3,20011,20011,2001,1,1,Attacker,22
2002,美坂メイヤ,メイヤ,R,Red,1279,1279,1279,341,1109,1109,3,20021,20021,2002,1,1,Balance,2
2003,トワ・ハーフメイル,トワ,R,Red,640,420,822,73,402,384,3,20031,20031,2003,1,1,Healer,14
2004,住吉サキ,サキ,R,Blue,670,1066,1371,122,640,701,3,20041,20041,2004,1,1,Healer,7
2005,堂島イクミ,イクミ,R,Blue,1237,1237,1492,298,1066,1066,3,20051,20051,2005,1,1,Balance,15
2006,梅本ハルキ,ハルキ,R,Blue,347,822,457,92,384,640,3,20061,20061,2006,1,1,Tunk,7
2007,ジョニー・マロル,ジョニー,R,Blue,670,1066,609,153,1371,701,3,20071,20071,2007,1,1,Lucky,19
2008,南部リツ,リツ,R,Green,1237,1492,1237,298,1066,1066,3,20081,20081,2008,1,1,Balance,16
2009,松島リコ,リコ,R,Green,822,293,439,92,457,640,3,20091,20091,2009,1,1,Attacker,20
2010,フミヤ・キョウジマ,フミヤ,R,Green,640,1371,579,153,1066,762,3,20101,20101,2010,1,1,Tunk,16
2011,ノウン,ノウン,R,Yerrow,895,1023,938,128,1492,1919,3,20111,20111,2011,1,1,Critical,9
2012,三國エリサ,エリサ,R,Yerrow,822,640,274,92,475,439,3,20121,20121,2012,1,1,Attacker,13
2013,千島フドウ,フドウ,R,Yerrow,701,1158,823,305,853,731,3,20131,20131,2013,1,1,Defender,5
3001,ユズ・イヌカイ,ユズ,SR,Red,2960,987,2302,329,1579,1711,3,30011,30011,3001,1,1,Attacker,2
3002,シンヤ・ロックハート,シンヤ,SR,Red,649,1071,761,282,789,677,3,30021,30021,3002,1,1,Defender,14
3003,アマネ・テラー,アマネ,SR,Red,940,1081,1645,141,2115,1128,3,30031,30031,3003,1,1,Lucky,14
3004,マロン・ベルト,マロン,SR,Red,2302,1316,1513,329,1448,2960,3,30041,30041,3004,1,1,Critical,22
3005,チヒロ・ドローペイン,チヒロ,SR,Blue,818,818,818,197,874,705,3,30051,30051,3005,1,1,Balance,15
3006,フキ・シノノメ,フキ,SR,Blue,2115,705,1645,235,1128,1222,3,30061,30061,3006,1,1,Attacker,15
3007,エアル・サクソフォン,エアル,SR,Blue,2500,1513,1842,658,1579,1777,3,30071,30071,3007,1,1,Defender,15
3008,シャウラ・フィラデル,シャウラ,SR,Blue,987,649,1269,113,620,592,3,30081,30081,3008,1,1,Healer,23
3009,ジュエリ・ランブリー,ジュエリ,SR,Green,2115,1128,752,235,1645,1175,3,30091,30091,3009,1,1,Attacker,4
3010,アスカ・ダンサブル,アスカ,SR,Green,1513,1382,2960,329,2302,1382,3,30101,30101,3010,1,1,Healer,4
3011,ジム・キャプラー,ジム,SR,Green,733,1269,649,212,677,677,3,30111,30111,3011,1,1,Tunk,24
3012,メグル・ニイジマ,メグル,SR,Green,1363,1363,1645,329,1175,1175,3,30121,30121,3012,1,1,Balance,20
3013,ユキノ・ヒイラギ,ユキノ,SR,Yerrow,1908,1908,1908,461,1645,2039,3,30131,30131,3013,1,1,Balance,17
3014,ミヤコ・センドウ,ミヤコ,SR,Yerrow,987,564,649,141,620,1269,3,30141,30141,3014,1,1,Critical,5
3015,スピカ・フィラデル,スピカ,SR,Yerrow,2115,1222,1175,376,1081,1081,3,30151,30151,3015,1,1,Attacker,13
3016,モアナ・リプリー,モアナ,SR,Yerrow,1250,2960,1645,329,1382,2302,3,30161,30161,3016,1,1,Tunk,5
4001,リンジー・ペリット,リンジー,SSR,Red,1809,965,643,201,1407,1005,3,40011,40011,4001,1,1,Attacker,10
4002,グレン・トレーダー,グレン,SSR,Red,2345,1943,1943,469,1675,1675,3,40021,40021,4002,1,1,Balance,22
4003,緒方ナナコ,ナナコ,SSR,Red,3283,1876,2157,469,2064,4221,3,40031,40031,4003,1,1,Critical,14
4004,ギンカ・レイ,ギンカ,SSR,Blue,1809,1407,603,201,1045,965,3,40041,40041,4004,1,1,Attacker,11
4005,天乃シズキ,カレン,SSR,Blue,1474,2345,3015,268,1407,1541,3,40051,40051,4005,1,1,Healer,15
4006,アキラ・スナイプス,アキラ,SSR,Blue,3283,1876,2157,469,2064,4221,3,40061,40061,4006,1,1,Critical,11
4007,リジェ・ロシリア,リジェ,SSR,Green,884,1407,1809,161,844,925,3,40071,40071,4007,1,1,Healer,16
4008,ジュン・キリシマ,ジュン,SSR,Green,2345,3015,1407,268,1541,1474,3,40081,40081,4008,1,1,Tunk,16
4009,リコ・スカーレット,リコ,SSR,Green,2720,2720,3283,657,2345,2345,3,40091,40091,4009,1,1,Balance,16
4010,パメラ・コべット,パメラ,SSR,Yerrow,1166,1407,1166,281,1005,1005,3,40101,40101,4010,1,1,Balance,13
4011,サキノリ・モガミ,サキノリ,SSR,Yerrow,2546,1541,1876,670,1608,1809,3,40111,40111,4011,1,1,Defender,18
4012,羽鳥シズク,シズク,SSR,Yerrow,4221,1407,3283,469,2251,2439,3,40121,40121,4012,1,1,Attacker,1
9999,テスト・ロストマン,テスト,SSR,Blue,3702,2101,1350,600,0,0,3,10011,10011,1001,1,1,Lucky,23
10001,おじさん,おじさん,N,Blue,494,494,494,111,5,150,3,10011,10011,1001,1,1,Lucky,1
10002,帝国兵,帝国兵,N,Blue,494,494,494,111,5,150,3,10011,10011,1001,1,1,Lucky,1
10003,老人,爺さん,N,Blue,494,494,494,111,5,150,3,10011,10011,1001,1,1,Lucky,1
10004,モブ成人男性B,おにいさん,N,Blue,494,494,494,111,5,150,3,10011,10011,1001,1,1,Lucky,1
20001,受付,受付,N,Blue,494,494,494,111,5,150,3,10011,10011,1001,1,1,Lucky,1
20002,少女,女の子,N,Blue,494,494,494,111,5,150,3,10011,10011,1001,1,1,Lucky,1
20003,シスター,シスター,N,Blue,494,494,494,111,5,150,3,10011,10011,1001,1,1,Lucky,1
20004,黒装束（シナリオ用）,黒装束,N,Blue,494,494,494,111,5,150,3,10011,10011,1001,1,1,Lucky,1
30001,ウィルゲン,ウィルゲン,N,Blue,494,494,494,111,5,150,3,10011,10011,1001,1,1,Lucky,1
30002,生まれたてアリア,アリア,N,Blue,494,494,494,111,5,150,3,10011,10011,1001,1,1,Lucky,1
30003,バルドラン・オーギュスタン,バル爺,N,Blue,494,494,494,111,5,150,3,10011,10011,1001,1,1,Lucky,1
30004,カイ父,デイヴィ,N,Blue,494,494,494,111,5,150,3,10011,10011,1001,1,1,Lucky,1
30005,カイ母,セリーナ,N,Blue,494,494,494,111,5,150,3,10011,10011,1001,1,1,Lucky,1
30006,精霊,精霊,N,Blue,494,494,494,111,5,150,3,10011,10011,1001,1,1,Lucky,1
30007,グローリエル,グローリエル,N,Blue,494,494,494,111,5,150,3,10011,10011,1001,1,1,Lucky,1
40001,アリアのペンダント,アリアのペンダント,N,Blue,494,494,494,111,5,150,3,10011,10011,1001,1,1,Lucky,1
40002,レアマキナのアミュレット,レアマキナのアミュレット,N,Blue,494,494,494,111,5,150,3,10011,10011,1001,1,1,Lucky,1
40003,爺さんの斧,爺さんの斧,N,Blue,494,494,494,111,5,150,3,10011,10011,1001,1,1,Lucky,1
40004,ビデフォン,ビデフォン,N,Blue,494,494,494,111,5,150,3,10011,10011,1001,1,1,Lucky,1
40005,古代伝承の絵画,古代伝承の絵画,N,Blue,494,494,494,111,5,150,3,10011,10011,1001,1,1,Lucky,1
90001,カイ・ロストマン,カイ,SR,Blue,3702,2101,1350,600,0,0,3,10011,10011,1001,1,1,Lucky,23
90002,ノア・ロストマン,ノア,SR,Green,639,639,639,144,0,0,3,10041,10041,1004,1,1,Healer,16
90003,クロナ・オルコット,クロナ,SR,Red,6578,2558,1096,365,0,0,3,10021,10021,1002,1,1,Attacker,6
90004,謎の男,謎の男,SR,Yerrow,639,639,639,144,0,0,3,10051,10051,1005,1,1,Attacker,21
