﻿GroupId,StageId,QuestId,ItemCategory,ItemId,ItemNum
11,1101,11011,Gem,1002,1
11,1101,11012,Gem,1002,1
11,1101,11013,Gem,1002,1
11,1102,11021,Gem,1002,1
11,1102,11022,Gem,1002,1
11,1102,11023,Gem,1002,1
11,1103,11031,Gem,1002,1
11,1103,11032,Gem,1002,1
11,1103,11033,Gem,1002,1
11,1104,11041,Gem,1002,1
11,1104,11042,Gem,1002,1
11,1104,11043,Gem,1002,1
11,1105,11051,Gem,1002,1
11,1105,11052,Gem,1002,1
11,1105,11053,Gem,1002,1
11,1106,11061,Gem,1002,1
11,1106,11062,Gem,1002,1
11,1106,11063,Gem,1002,1
11,1107,11071,Gem,1002,1
11,1107,11072,Gem,1002,1
11,1107,11073,Gem,1002,1
11,1108,11081,Gem,1002,1
11,1108,11082,Gem,1002,1
11,1108,11083,Gem,1002,1
11,1109,11091,Gem,1002,1
11,1109,11092,Gem,1002,1
11,1109,11093,Gem,1002,1
11,1110,11101,Gem,1002,1
11,1110,11102,Gem,1002,1
11,1110,11103,Gem,1002,1
11,1111,11111,Gem,1002,1
11,1111,11112,Gem,1002,1
11,1111,11113,Gem,1002,1
11,1112,11121,Gem,1002,1
11,1112,11122,Gem,1002,1
11,1112,11123,Gem,1002,1
11,1113,11131,Gem,1002,1
11,1113,11132,Gem,1002,1
11,1113,11133,Gem,1002,1
11,1114,11141,Gem,1002,1
11,1114,11142,Gem,1002,1
11,1114,11143,Gem,1002,1
11,1115,11151,Gem,1002,1
11,1115,11152,Gem,1002,1
11,1115,11153,Gem,1002,1
12,1201,12011,Gem,1002,1
12,1201,12012,Gem,1002,1
12,1201,12013,Gem,1002,1
12,1202,12021,Gem,1002,1
12,1202,12022,Gem,1002,1
12,1202,12023,Gem,1002,1
12,1203,12031,Gem,1002,1
12,1203,12032,Gem,1002,1
12,1203,12033,Gem,1002,1
12,1204,12041,Gem,1002,1
12,1204,12042,Gem,1002,1
12,1204,12043,Gem,1002,1
12,1205,12051,Gem,1002,1
12,1205,12052,Gem,1002,1
12,1205,12053,Gem,1002,1
12,1206,12061,Gem,1002,1
12,1206,12062,Gem,1002,1
12,1206,12063,Gem,1002,1
12,1207,12071,Gem,1002,1
12,1207,12072,Gem,1002,1
12,1207,12073,Gem,1002,1
12,1208,12081,Gem,1002,1
12,1208,12082,Gem,1002,1
12,1208,12083,Gem,1002,1
12,1209,12091,Gem,1002,1
12,1209,12092,Gem,1002,1
12,1209,12093,Gem,1002,1
12,1210,12101,Gem,1002,1
12,1210,12102,Gem,1002,1
12,1210,12103,Gem,1002,1
12,1211,12111,Gem,1002,1
12,1211,12112,Gem,1002,1
12,1211,12113,Gem,1002,1
12,1212,12121,Gem,1002,1
12,1212,12122,Gem,1002,1
12,1212,12123,Gem,1002,1
12,1213,12131,Gem,1002,1
12,1213,12132,Gem,1002,1
12,1213,12133,Gem,1002,1
12,1214,12141,Gem,1002,1
12,1214,12142,Gem,1002,1
12,1214,12143,Gem,1002,1
12,1215,12151,Gem,1002,1
12,1215,12152,Gem,1002,1
12,1215,12153,Gem,1002,1
21,2101,21011,Gem,1002,1
21,2101,21012,Gem,1002,1
21,2101,21013,Gem,1002,1
21,2102,21021,Gem,1002,1
21,2102,21022,Gem,1002,1
21,2102,21023,Gem,1002,1
21,2103,21031,Gem,1002,1
21,2103,21032,Gem,1002,1
21,2103,21033,Gem,1002,1
21,2104,21041,Gem,1002,1
21,2104,21042,Gem,1002,1
21,2104,21043,Gem,1002,1
21,2105,21051,Gem,1002,1
21,2105,21052,Gem,1002,1
21,2105,21053,Gem,1002,1
21,2106,21061,Gem,1002,1
21,2106,21062,Gem,1002,1
21,2106,21063,Gem,1002,1
21,2107,21071,Gem,1002,1
21,2107,21072,Gem,1002,1
21,2107,21073,Gem,1002,1
21,2108,21081,Gem,1002,1
21,2108,21082,Gem,1002,1
21,2108,21083,Gem,1002,1
21,2109,21091,Gem,1002,1
21,2109,21092,Gem,1002,1
21,2109,21093,Gem,1002,1
21,2110,21101,Gem,1002,1
21,2110,21102,Gem,1002,1
21,2110,21103,Gem,1002,1
21,2111,21111,Gem,1002,1
21,2111,21112,Gem,1002,1
21,2111,21113,Gem,1002,1
21,2112,21121,Gem,1002,1
21,2112,21122,Gem,1002,1
21,2112,21123,Gem,1002,1
21,2113,21131,Gem,1002,1
21,2113,21132,Gem,1002,1
21,2113,21133,Gem,1002,1
21,2114,21141,Gem,1002,1
21,2114,21142,Gem,1002,1
21,2114,21143,Gem,1002,1
21,2115,21151,Gem,1002,1
21,2115,21152,Gem,1002,1
21,2115,21153,Gem,1002,1
22,2201,22011,Gem,1002,1
22,2201,22012,Gem,1002,1
22,2201,22013,Gem,1002,1
22,2202,22021,Gem,1002,1
22,2202,22022,Gem,1002,1
22,2202,22023,Gem,1002,1
22,2203,22031,Gem,1002,1
22,2203,22032,Gem,1002,1
22,2203,22033,Gem,1002,1
22,2204,22041,Gem,1002,1
22,2204,22042,Gem,1002,1
22,2204,22043,Gem,1002,1
22,2205,22051,Gem,1002,1
22,2205,22052,Gem,1002,1
22,2205,22053,Gem,1002,1
22,2206,22061,Gem,1002,1
22,2206,22062,Gem,1002,1
22,2206,22063,Gem,1002,1
22,2207,22071,Gem,1002,1
22,2207,22072,Gem,1002,1
22,2207,22073,Gem,1002,1
22,2208,22081,Gem,1002,1
22,2208,22082,Gem,1002,1
22,2208,22083,Gem,1002,1
22,2209,22091,Gem,1002,1
22,2209,22092,Gem,1002,1
22,2209,22093,Gem,1002,1
22,2210,22101,Gem,1002,1
22,2210,22102,Gem,1002,1
22,2210,22103,Gem,1002,1
22,2211,22111,Gem,1002,1
22,2211,22112,Gem,1002,1
22,2211,22113,Gem,1002,1
22,2212,22121,Gem,1002,1
22,2212,22122,Gem,1002,1
22,2212,22123,Gem,1002,1
22,2213,22131,Gem,1002,1
22,2213,22132,Gem,1002,1
22,2213,22133,Gem,1002,1
22,2214,22141,Gem,1002,1
22,2214,22142,Gem,1002,1
22,2214,22143,Gem,1002,1
22,2215,22151,Gem,1002,1
22,2215,22152,Gem,1002,1
22,2215,22153,Gem,1002,1
31,3101,31011,Gem,1002,1
31,3101,31012,Gem,1002,1
31,3101,31013,Gem,1002,1
31,3102,31021,Gem,1002,1
31,3102,31022,Gem,1002,1
31,3102,31023,Gem,1002,1
31,3103,31031,Gem,1002,1
31,3103,31032,Gem,1002,1
31,3103,31033,Gem,1002,1
31,3104,31041,Gem,1002,1
31,3104,31042,Gem,1002,1
31,3104,31043,Gem,1002,1
31,3105,31051,Gem,1002,1
31,3105,31052,Gem,1002,1
31,3105,31053,Gem,1002,1
31,3106,31061,Gem,1002,1
31,3106,31062,Gem,1002,1
31,3106,31063,Gem,1002,1
31,3107,31071,Gem,1002,1
31,3107,31072,Gem,1002,1
31,3107,31073,Gem,1002,1
31,3108,31081,Gem,1002,1
31,3108,31082,Gem,1002,1
31,3108,31083,Gem,1002,1
31,3109,31091,Gem,1002,1
31,3109,31092,Gem,1002,1
31,3109,31093,Gem,1002,1
31,3110,31101,Gem,1002,1
31,3110,31102,Gem,1002,1
31,3110,31103,Gem,1002,1
31,3111,31111,Gem,1002,1
31,3111,31112,Gem,1002,1
31,3111,31113,Gem,1002,1
31,3112,31121,Gem,1002,1
31,3112,31122,Gem,1002,1
31,3112,31123,Gem,1002,1
31,3113,31131,Gem,1002,1
31,3113,31132,Gem,1002,1
31,3113,31133,Gem,1002,1
31,3114,31141,Gem,1002,1
31,3114,31142,Gem,1002,1
31,3114,31143,Gem,1002,1
31,3115,31151,Gem,1002,1
31,3115,31152,Gem,1002,1
31,3115,31153,Gem,1002,1
32,3201,32011,Gem,1002,1
32,3201,32012,Gem,1002,1
32,3201,32013,Gem,1002,1
32,3202,32021,Gem,1002,1
32,3202,32022,Gem,1002,1
32,3202,32023,Gem,1002,1
32,3203,32031,Gem,1002,1
32,3203,32032,Gem,1002,1
32,3203,32033,Gem,1002,1
32,3204,32041,Gem,1002,1
32,3204,32042,Gem,1002,1
32,3204,32043,Gem,1002,1
32,3205,32051,Gem,1002,1
32,3205,32052,Gem,1002,1
32,3205,32053,Gem,1002,1
32,3206,32061,Gem,1002,1
32,3206,32062,Gem,1002,1
32,3206,32063,Gem,1002,1
32,3207,32071,Gem,1002,1
32,3207,32072,Gem,1002,1
32,3207,32073,Gem,1002,1
32,3208,32081,Gem,1002,1
32,3208,32082,Gem,1002,1
32,3208,32083,Gem,1002,1
32,3209,32091,Gem,1002,1
32,3209,32092,Gem,1002,1
32,3209,32093,Gem,1002,1
32,3210,32101,Gem,1002,1
32,3210,32102,Gem,1002,1
32,3210,32103,Gem,1002,1
32,3211,32111,Gem,1002,1
32,3211,32112,Gem,1002,1
32,3211,32113,Gem,1002,1
32,3212,32121,Gem,1002,1
32,3212,32122,Gem,1002,1
32,3212,32123,Gem,1002,1
32,3213,32131,Gem,1002,1
32,3213,32132,Gem,1002,1
32,3213,32133,Gem,1002,1
32,3214,32141,Gem,1002,1
32,3214,32142,Gem,1002,1
32,3214,32143,Gem,1002,1
32,3215,32151,Gem,1002,1
32,3215,32152,Gem,1002,1
32,3215,32153,Gem,1002,1
101,10101,101011,Gem,1002,1
101,10101,101012,Gem,1002,1
101,10101,101013,Gem,1002,1
101,10101,101014,Gem,1002,1
101,10101,101015,Gem,1002,1
101,10101,101016,Gem,1002,1
101,10101,101017,Gem,1002,1
101,10101,101018,Gem,1002,1
101,10101,101019,Gem,1002,1
102,10201,102011,Gem,1002,1
102,10201,102012,Gem,1002,1
102,10201,102013,Gem,1002,1
102,10202,102011,Gem,1002,1
102,10202,102012,Gem,1002,1
102,10202,102013,Gem,1002,1
