﻿ShopId,StaffId,MessageId,Message,AnimationKey,VoiceKey,Ratio
1,1,1,よく来たな！\n好きなアイテムと交換してやるよ！,Face_Smile,,1
1,1,2,なんでも持っていけよ！\nも、もちろん、金はいただくけどな…！,Face_Shy,,0
1,2,1,いらっしゃ～い！！\nクロナのよろず屋へようこそ～っ！\nなんちて！,Face_Smile,,0
1,2,2,お気に召すものはあるかしら…？\nべっ、べつにアンタのこと\n気にしてるわけじゃないわよ…っ！,Face_Shy,,0
1,3,1,いらっしゃいませ～！\n気に入ったアイテムと交換しちゃいます♪,Face_Smile,,0
1,3,2,その…あなたが気に入ったのなら\nなんでもあげちゃいます…よ？,Face_Shy,,0
1,4,1,ようこそ、アイテム交換所へ！\n気に入ったアイテムと交換していくといい。,Face_Smile,,0
1,4,2,マキナの説明か？任せてくれ！\nこれは約500年前に発掘された貴重な…\n…って聞いてないな！？,Face_Shy,,0
