﻿SkillId,ActionId,Target
10011,1,AllEnemy
10012,1,AllEnemy
10021,1,SingleEnemy
10022,1,Self
10022,2,SingleEnemy
10031,1,Self
10032,1,Self
10032,2,Self
10041,1,SingleEnemy
10042,1,AllEnemy
10051,1,AllEnemy
10052,1,AllEnemy
10061,1,SingleEnemy
10062,1,SingleEnemy
10071,1,Self
10072,1,Self
10072,2,Self
10081,1,Self
10082,1,Self
10091,1,SingleEnemy
10092,1,SingleEnemy
10101,1,SingleEnemy
10102,1,SingleEnemy
10111,1,SingleEnemy
10112,1,SingleEnemy
10121,1,SingleEnemy
10122,1,SingleEnemy
10131,1,SingleEnemy
10132,1,SingleEnemy
10141,1,AllEnemy
10142,1,AllEnemy
10151,1,AllEnemy
10152,1,AllEnemy
10161,1,AllEnemy
10162,1,AllEnemy
10171,1,AllEnemy
10172,1,AllEnemy
20011,1,SingleEnemy
20012,1,SingleEnemy
20021,1,AllMember
20022,1,AllMember
20031,1,Self
20032,1,Self
20041,1,Self
20042,1,Self
20051,1,RoundMember
20052,1,RoundMember
20061,1,AllEnemy
20062,1,AllEnemy
20062,2,AllMember
20071,1,AllMember
20072,1,AllMember
20072,2,AllMember
20081,1,Self
20081,2,Self
20082,1,Self
20082,2,Self
20091,1,Self
20092,1,Self
20101,1,AllEnemy
20101,2,AllMember
20102,1,AllEnemy
20102,2,AllMember
20121,1,AllEnemy
20121,2,AllMember
20122,1,AllEnemy
20122,2,AllMember
30011,1,SingleEnemy
30012,1,SingleEnemy
30021,1,Self
30021,2,Self
30022,1,Self
30022,2,Self
30041,1,AllEnemy
30042,1,AllEnemy
30061,1,AllEnemy
30062,1,AllEnemy
30071,1,AllMember
30072,1,AllMember
30081,1,AllEnemy
30081,2,SingleEnemy
30082,1,AllEnemy
30082,2,SingleEnemy
30091,1,SingleEnemy
30092,1,SingleEnemy
30101,1,AllMember
30102,1,AllMember
30111,1,Self
30111,2,Self
30112,1,Self
30112,2,Self
30121,1,AllMember
30121,2,Self
30122,1,AllMember
30122,2,Self
30131,1,Self
30132,1,Self
30132,2,Self
30141,1,SingleEnemy
30141,2,SingleEnemy
30142,1,SingleEnemy
30142,2,SingleEnemy
30152,2,Self
30161,1,AllMember
30162,1,AllMember
40011,1,AllEnemy
40012,1,AllEnemy
40021,1,Self
40021,2,Self
40022,1,Self
40022,2,Self
40031,2,RoundMember
40032,2,RoundMember
40041,1,SingleEnemy
40041,2,AllMember
40042,1,SingleEnemy
40042,2,AllMember
40061,1,Self
40061,2,AllEnemy
40062,1,Self
40062,2,AllEnemy
40071,1,Self
40071,2,Self
40072,1,Self
40072,2,Self
40091,1,Self
40091,2,AllMember
40092,1,Self
40092,2,AllMember
40101,1,AllMember
40101,2,AllMember
40102,1,AllMember
40102,2,AllMember
40111,1,AllEnemy
40111,2,Self
40112,1,AllEnemy
40112,2,Self
40121,1,AllEnemy
40121,2,AllEnemy
40122,1,AllEnemy
40122,2,AllEnemy
