﻿EffectId,Name
1001,PcExSkill/PcExSkill1001
1002,PcExSkill/PcExSkill1002
1003,PcExSkill/PcExSkill1003
1004,PcExSkill/PcExSkill1003
1005,PcExSkill/PcExSkill1003
1006,PcExSkill/PcExSkill1006
1007,PcExSkill/PcExSkill1007
1008,PcExSkill/PcExSkill1008
1009,PcExSkill/PcExSkill1009
1010,PcExSkill/PcExSkill1010
1011,PcExSkill/PcExSkill1011
1012,PcExSkill/PcExSkill1012
1013,PcExSkill/PcExSkill1013
1014,PcExSkill/PcExSkill1014
1015,PcExSkill/PcExSkill1015
1016,PcExSkill/PcExSkill1016
1017,PcExSkill/PcExSkill1017
2001,PcExSkill/PcExSkill1003
2002,PcExSkill/PcExSkill1003
2003,PcExSkill/PcExSkill1003
2004,PcExSkill/PcExSkill1003
2005,PcExSkill/PcExSkill1003
2006,PcExSkill/PcExSkill1003
2007,PcExSkill/PcExSkill1003
2008,PcExSkill/PcExSkill1003
2009,PcExSkill/PcExSkill1003
2010,PcExSkill/PcExSkill1003
2011,PcExSkill/PcExSkill1003
2012,PcExSkill/PcExSkill1003
2013,PcExSkill/PcExSkill1003
3001,PcExSkill/PcExSkill1003
3002,PcExSkill/PcExSkill3002
3003,PcExSkill/PcExSkill3003
3004,PcExSkill/PcExSkill3004
3005,PcExSkill/PcExSkill3005
3006,PcExSkill/PcExSkill1003
3007,PcExSkill/PcExSkill3007
3008,PcExSkill/PcExSkill1003
3009,PcExSkill/PcExSkill1003
3010,PcExSkill/PcExSkill1003
3011,PcExSkill/PcExSkill3011
3012,PcExSkill/PcExSkill1003
3013,PcExSkill/PcExSkill3013
3014,PcExSkill/PcExSkill3014
3015,PcExSkill/PcExSkill1003
3016,PcExSkill/PcExSkill1003
4001,PcExSkill/PcExSkill1003
4002,PcExSkill/PcExSkill1003
4003,PcExSkill/PcExSkill1003
4004,PcExSkill/PcExSkill1003
4005,PcExSkill/PcExSkill1003
4006,PcExSkill/PcExSkill1003
4007,PcExSkill/PcExSkill1003
4008,PcExSkill/PcExSkill1003
4009,PcExSkill/PcExSkill1003
4010,PcExSkill/PcExSkill1003
4011,PcExSkill/PcExSkill1003
4012,PcExSkill/PcExSkill1003
9001,BtlSkill/PcAttackSkillEarth_001
9002,BtlSkill/PcAttackSkillEarth_001
9003,BtlSkill/PcAttackSkillEarth_001
9004,BtlSkill/PcAttackSkillEarth_001
9005,BtlSkill/PcAttackSkillEarth_001
9006,BtlSkill/PcAttackSkillEarth_001
9007,BtlSkill/PcAttackSkillEarth_001
9008,BtlSkill/PcAttackSkillEarth_001
9009,BtlSkill/PcAttackSkillEarth_001
9010,BtlSkill/PcAttackSkillEarth_001
9011,BtlSkill/PcAttackSkillEarth_001
9012,BtlSkill/PcAttackSkillEarth_001
9013,BtlSkill/PcAttackSkillEarth_001
9014,BtlSkill/PcAttackSkillEarth_001
9015,BtlSkill/PcAttackSkillEarth_001
9016,BtlSkill/PcAttackSkillEarth_001
9999,
